test/tb.vcd
$date
	Fri Sep  5 22:00:03 2025
$end
$version
	Icarus Verilog
$end
$timescale
	1ps
$end
$scope module tb $end
$var wire 8 ! uio_oe [7:0] $end
$var wire 8 " uo_out [7:0] $end
$var wire 8 # uio_out [7:0] $end
$var wire 8 $ uio_in [7:0] $end
$var reg 1 % clk $end
$var reg 1 & ena $end
$var reg 1 ' rst_n $end
$var reg 8 ( ui_in [7:0] $end
$scope module user_project $end
$var wire 1 % clk $end
$var wire 1 & ena $end
$var wire 1 ' rst_n $end
$var wire 8 ) ui_in [7:0] $end
$var wire 8 * uio_oe [7:0] $end
$var wire 8 + uo_out [7:0] $end
$var wire 8 , uio_in [7:0] $end
$var reg 1 - _unused $end
$var reg 8 . uio_out [7:0] $end
$scope module core $end
$var wire 8 / Datos_in [7:0] $end
$var wire 1 0 Ena_accu_Ena $end
$var wire 1 1 Ena_read $end
$var wire 1 2 Ena_read_Ena $end
$var wire 1 3 Ena_write $end
$var wire 1 4 Ena_write_Ena $end
$var wire 1 5 clear $end
$var wire 1 % clk $end
$var wire 1 6 enable_accu $end
$var wire 1 ' rst $end
$var wire 1 7 flat_64_comple $end
$var wire 64 8 dato_in_64_bits_resultado [63:0] $end
$var wire 64 9 dato_in_64_bits_output [63:0] $end
$var wire 64 : dato_in_64_bits [63:0] $end
$var wire 1 ; Ena_out $end
$var wire 8 < Datos_out [7:0] $end
$var reg 1 = Ena_accu_retradado $end
$var reg 1 > Ena_accu_retradado_re $end
$var reg 1 ? Ena_read_retradado $end
$var reg 1 @ Ena_read_retradado_re $end
$var reg 1 A Ena_write_retradado $end
$var reg 1 B Ena_write_retradado_re $end
$var reg 1 C conta_palabras $end
$var reg 64 D dato_in_64_bits_A [63:0] $end
$scope module four_palabras_Unit $end
$var wire 1 % clk $end
$var wire 8 E dato [7:0] $end
$var wire 1 ' rst $end
$var wire 1 4 rx_flat $end
$var reg 3 F con [2:0] $end
$var reg 64 G data_comple [63:0] $end
$var reg 1 7 flat_comple $end
$var reg 64 H var_data_comple [63:0] $end
$scope begin $ivl_for_loop0 $end
$var integer 32 I j [31:0] $end
$upscope $end
$scope begin $ivl_for_loop1 $end
$var integer 32 J j [31:0] $end
$upscope $end
$scope begin $ivl_for_loop2 $end
$var integer 32 K i [31:0] $end
$upscope $end
$upscope $end
$scope module matrix_accumulate_unit_u $end
$var wire 1 5 clear $end
$var wire 1 % clock $end
$var wire 1 0 enable $end
$var wire 1 ' reset $end
$var wire 64 L result [63:0] $end
$var wire 64 M out [63:0] $end
$var reg 64 N accumulator [63:0] $end
$upscope $end
$scope module matrix_multiply_unit_u $end
$var wire 64 O matrixA [63:0] $end
$var wire 64 P matrixB [63:0] $end
$var reg 64 Q result [63:0] $end
$var integer 32 R i [31:0] $end
$var integer 32 S j [31:0] $end
$var integer 32 T k [31:0] $end
$upscope $end
$scope module uart_tx_4in4_u $end
$var wire 1 % clk $end
$var wire 64 U input_dato [63:0] $end
$var wire 1 2 next_uart $end
$var wire 1 ' rst $end
$var wire 1 V start $end
$var reg 4 W Con [3:0] $end
$var reg 64 X Dato [63:0] $end
$var reg 1 Y First $end
$var reg 1 Z Flat $end
$var reg 8 [ Output_dato [7:0] $end
$var reg 1 ; flat_out $end
$upscope $end
$upscope $end
$upscope $end
$upscope $end
$enddefinitions $end
#0
$dumpvars
b0 [
0Z
0Y
b0 X
b0 W
0V
b0 U
b100 T
b100 S
b100 R
bx Q
b0 P
b0 O
b0 N
b0 M
bx L
b0 K
b111 J
b111 I
bx H
b0 G
b0 F
b0 E
b0 D
0C
0B
0A
0@
0?
0>
0=
b0 <
0;
b0 :
b0 9
bx 8
07
06
05
04
03
02
01
00
b0 /
bx .
0-
b0 ,
b0 +
b10000 *
b0 )
b0 (
0'
0&
1%
b0 $
bx #
b0 "
b10000 !
$end
#50000
0%
#100000
b111 J
1%
#150000
0%
#200000
b111 J
1%
#250000
0%
#300000
b111 J
1%
#350000
0%
#400000
b111 J
1%
#450000
0%
#500000
b111 J
1%
#550000
0%
#600000
b111 J
1%
#650000
0%
#700000
b111 J
1%
#750000
0%
#800000
b111 J
1%
#850000
0%
#900000
1'
b111 J
1%
#950000
0%
#1000000
13
b1 $
b1 ,
b10111 (
b10111 )
b10111 /
b10111 E
bx 9
bx M
bx U
bx N
1%
#1050000
0%
#1100000
14
1A
1%
#1150000
0%
#1200000
04
1B
b1 F
1%
#1250000
0%
#1300000
03
b0 $
b0 ,
1%
#1350000
0%
#1400000
0A
1%
#1450000
0%
#1500000
0B
1%
#1550000
0%
#1600000
1%
#1650000
0%
#1700000
1%
#1750000
0%
#1800000
13
b1 $
b1 ,
b110110 (
b110110 )
b110110 /
b110110 E
1%
#1850000
0%
#1900000
14
1A
1%
#1950000
0%
#2000000
04
1B
b10 F
1%
#2050000
0%
#2100000
03
b0 $
b0 ,
1%
#2150000
0%
#2200000
0A
1%
#2250000
0%
#2300000
0B
1%
#2350000
0%
#2400000
1%
#2450000
0%
#2500000
1%
#2550000
0%
#2600000
13
b1 $
b1 ,
b1111011 (
b1111011 )
b1111011 /
b1111011 E
1%
#2650000
0%
#2700000
14
1A
1%
#2750000
0%
#2800000
04
1B
b11 F
1%
#2850000
0%
#2900000
03
b0 $
b0 ,
1%
#2950000
0%
#3000000
0A
1%
#3050000
0%
#3100000
0B
1%
#3150000
0%
#3200000
1%
#3250000
0%
#3300000
1%
#3350000
0%
#3400000
13
b1 $
b1 ,
b11111011 (
b11111011 )
b11111011 /
b11111011 E
1%
#3450000
0%
#3500000
14
1A
1%
#3550000
0%
#3600000
04
1B
b100 F
1%
#3650000
0%
#3700000
03
b0 $
b0 ,
1%
#3750000
0%
#3800000
0A
1%
#3850000
0%
#3900000
0B
1%
#3950000
0%
#4000000
1%
#4050000
0%
#4100000
1%
#4150000
0%
#4200000
13
b1 $
b1 ,
b1000 (
b1000 )
b1000 /
b1000 E
1%
#4250000
0%
#4300000
14
1A
1%
#4350000
0%
#4400000
04
1B
b101 F
1%
#4450000
0%
#4500000
03
b0 $
b0 ,
1%
#4550000
0%
#4600000
0A
1%
#4650000
0%
#4700000
0B
1%
#4750000
0%
#4800000
1%
#4850000
0%
#4900000
1%
#4950000
0%
#5000000
13
b1 $
b1 ,
b1100101 (
b1100101 )
b1100101 /
b1100101 E
1%
#5050000
0%
#5100000
14
1A
1%
#5150000
0%
#5200000
04
1B
b110 F
1%
#5250000
0%
#5300000
03
b0 $
b0 ,
1%
#5350000
0%
#5400000
0A
1%
#5450000
0%
#5500000
0B
1%
#5550000
0%
#5600000
1%
#5650000
0%
#5700000
1%
#5750000
0%
#5800000
13
b1 $
b1 ,
b11011101 (
b11011101 )
b11011101 /
b11011101 E
1%
#5850000
0%
#5900000
14
1A
1%
#5950000
0%
#6000000
04
1B
b111 F
1%
#6050000
0%
#6100000
03
b0 $
b0 ,
1%
#6150000
0%
#6200000
0A
1%
#6250000
0%
#6300000
0B
1%
#6350000
0%
#6400000
1%
#6450000
0%
#6500000
1%
#6550000
0%
#6600000
13
b1 $
b1 ,
b10010001 (
b10010001 )
b10010001 /
b10010001 E
1%
#6650000
0%
#6700000
14
1A
1%
#6750000
0%
#6800000
b100 T
b100 S
b100 R
04
b0 F
b1001000111011101011001010000100011111011011110110011011000010111 :
b1001000111011101011001010000100011111011011110110011011000010111 G
b1001000111011101011001010000100011111011011110110011011000010111 P
1B
17
b111 K
b1001000111011101011001010000100011111011011110110011011000010111 H
1%
#6850000
0%
#6900000
03
b0 $
b0 ,
b100 T
b100 S
b100 R
1C
b1001000111011101011001010000100011111011011110110011011000010111 D
b1001000111011101011001010000100011111011011110110011011000010111 O
07
1%
#6950000
0%
#7000000
0A
1%
#7050000
0%
#7100000
0B
1%
#7150000
0%
#7200000
1%
#7250000
0%
#7300000
1%
#7350000
0%
#7400000
1%
#7450000
0%
#7500000
1%
#7550000
0%
#7600000
1%
#7650000
0%
#7700000
1%
#7750000
0%
#7800000
1%
#7850000
0%
#7900000
1%
#7950000
0%
#8000000
1%
#8050000
0%
#8100000
1%
#8150000
0%
#8200000
1%
#8250000
0%
#8300000
1%
#8350000
0%
#8400000
13
b1 $
b1 ,
b1101000 (
b1101000 )
b1101000 /
b1101000 E
1%
#8450000
0%
#8500000
14
1A
1%
#8550000
0%
#8600000
04
b1 F
1B
1%
#8650000
0%
#8700000
03
b0 $
b0 ,
1%
#8750000
0%
#8800000
0A
1%
#8850000
0%
#8900000
0B
1%
#8950000
0%
#9000000
1%
#9050000
0%
#9100000
1%
#9150000
0%
#9200000
13
b1 $
b1 ,
b1010 (
b1010 )
b1010 /
b1010 E
1%
#9250000
0%
#9300000
14
1A
1%
#9350000
0%
#9400000
04
b10 F
1B
1%
#9450000
0%
#9500000
03
b0 $
b0 ,
1%
#9550000
0%
#9600000
0A
1%
#9650000
0%
#9700000
0B
1%
#9750000
0%
#9800000
1%
#9850000
0%
#9900000
1%
#9950000
0%
#10000000
13
b1 $
b1 ,
b1111001 (
b1111001 )
b1111001 /
b1111001 E
1%
#10050000
0%
#10100000
14
1A
1%
#10150000
0%
#10200000
04
b11 F
1B
1%
#10250000
0%
#10300000
03
b0 $
b0 ,
1%
#10350000
0%
#10400000
0A
1%
#10450000
0%
#10500000
0B
1%
#10550000
0%
#10600000
1%
#10650000
0%
#10700000
1%
#10750000
0%
#10800000
13
b1 $
b1 ,
b11101 (
b11101 )
b11101 /
b11101 E
1%
#10850000
0%
#10900000
14
1A
1%
#10950000
0%
#11000000
04
b100 F
1B
1%
#11050000
0%
#11100000
03
b0 $
b0 ,
1%
#11150000
0%
#11200000
0A
1%
#11250000
0%
#11300000
0B
1%
#11350000
0%
#11400000
1%
#11450000
0%
#11500000
1%
#11550000
0%
#11600000
13
b1 $
b1 ,
b100010 (
b100010 )
b100010 /
b100010 E
1%
#11650000
0%
#11700000
14
1A
1%
#11750000
0%
#11800000
04
b101 F
1B
1%
#11850000
0%
#11900000
03
b0 $
b0 ,
1%
#11950000
0%
#12000000
0A
1%
#12050000
0%
#12100000
0B
1%
#12150000
0%
#12200000
1%
#12250000
0%
#12300000
1%
#12350000
0%
#12400000
13
b1 $
b1 ,
b11111011 (
b11111011 )
b11111011 /
b11111011 E
1%
#12450000
0%
#12500000
14
1A
1%
#12550000
0%
#12600000
04
b110 F
1B
1%
#12650000
0%
#12700000
03
b0 $
b0 ,
1%
#12750000
0%
#12800000
0A
1%
#12850000
0%
#12900000
0B
1%
#12950000
0%
#13000000
1%
#13050000
0%
#13100000
1%
#13150000
0%
#13200000
13
b1 $
b1 ,
b1100110 (
b1100110 )
b1100110 /
b1100110 E
1%
#13250000
0%
#13300000
14
1A
1%
#13350000
0%
#13400000
04
b111 F
1B
1%
#13450000
0%
#13500000
03
b0 $
b0 ,
1%
#13550000
0%
#13600000
0A
1%
#13650000
0%
#13700000
0B
1%
#13750000
0%
#13800000
1%
#13850000
0%
#13900000
1%
#13950000
0%
#14000000
13
b1 $
b1 ,
b10000100 (
b10000100 )
b10000100 /
b10000100 E
1%
#14050000
0%
#14100000
14
1A
1%
#14150000
0%
#14200000
b100 T
b100 S
b100 R
04
b0 F
b1000010001100110111110110010001000011101011110010000101001101000 :
b1000010001100110111110110010001000011101011110010000101001101000 G
b1000010001100110111110110010001000011101011110010000101001101000 P
17
1B
b111 K
b1000010001100110111110110010001000011101011110010000101001101000 H
1%
#14250000
0%
#14300000
03
b0 $
b0 ,
0C
07
1%
#14350000
0%
#14400000
0A
1%
#14450000
0%
#14500000
0B
1%
