test/tb.vcd
$date
	Fri Sep  5 23:34:43 2025
$end
$version
	Icarus Verilog
$end
$timescale
	1ps
$end
$scope module tb $end
$var wire 8 ! uio_oe [7:0] $end
$var wire 8 " uo_out [7:0] $end
$var wire 8 # uio_out [7:0] $end
$var wire 8 $ uio_in [7:0] $end
$var reg 1 % clk $end
$var reg 1 & ena $end
$var reg 1 ' rst_n $end
$var reg 8 ( ui_in [7:0] $end
$scope module user_project $end
$var wire 1 % clk $end
$var wire 1 & ena $end
$var wire 1 ' rst_n $end
$var wire 8 ) ui_in [7:0] $end
$var wire 8 * uio_oe [7:0] $end
$var wire 8 + uo_out [7:0] $end
$var wire 8 , uio_in [7:0] $end
$var reg 1 - _unused $end
$var reg 8 . uio_out [7:0] $end
$scope module core $end
$var wire 8 / Datos_in [7:0] $end
$var wire 1 0 Ena_accu_Ena $end
$var wire 1 1 Ena_read $end
$var wire 1 2 Ena_read_Ena $end
$var wire 1 3 Ena_write $end
$var wire 1 4 Ena_write_Ena $end
$var wire 1 5 clear $end
$var wire 1 % clk $end
$var wire 1 6 enable_accu $end
$var wire 1 ' rst $end
$var wire 1 7 flat_64_comple $end
$var wire 64 8 dato_in_64_bits_resultado [63:0] $end
$var wire 64 9 dato_in_64_bits_output [63:0] $end
$var wire 64 : dato_in_64_bits [63:0] $end
$var wire 1 ; Ena_out $end
$var wire 8 < Datos_out [7:0] $end
$var reg 1 = Ena_accu_retradado $end
$var reg 1 > Ena_accu_retradado_re $end
$var reg 1 ? Ena_read_retradado $end
$var reg 1 @ Ena_read_retradado_re $end
$var reg 1 A Ena_write_retradado $end
$var reg 1 B Ena_write_retradado_re $end
$var reg 1 C conta_palabras $end
$var reg 64 D dato_in_64_bits_A [63:0] $end
$var reg 1 E ena_TPU $end
$scope module accumulate_unit_u $end
$var wire 1 5 clear $end
$var wire 1 % clock $end
$var wire 1 0 enable $end
$var wire 1 ' reset $end
$var wire 64 F result [63:0] $end
$var wire 64 G out [63:0] $end
$var reg 64 H accumulator [63:0] $end
$upscope $end
$scope module four_palabras_Unit $end
$var wire 1 % clk $end
$var wire 8 I dato [7:0] $end
$var wire 1 ' rst $end
$var wire 1 4 rx_flat $end
$var reg 3 J con [2:0] $end
$var reg 64 K data_comple [63:0] $end
$var reg 1 7 flat_comple $end
$var reg 64 L var_data_comple [63:0] $end
$scope begin $ivl_for_loop0 $end
$var integer 32 M j [31:0] $end
$upscope $end
$scope begin $ivl_for_loop1 $end
$var integer 32 N j [31:0] $end
$upscope $end
$scope begin $ivl_for_loop2 $end
$var integer 32 O i [31:0] $end
$upscope $end
$upscope $end
$scope module multiply_unit_u $end
$var wire 1 % clk $end
$var wire 64 P matrixA [63:0] $end
$var wire 64 Q matrixB [63:0] $end
$var wire 1 ' rst $end
$var reg 8 R accumulator [7:0] $end
$var reg 3 S i [2:0] $end
$var reg 3 T j [2:0] $end
$var reg 3 U k [2:0] $end
$var reg 64 V result [63:0] $end
$var reg 3 W state [2:0] $end
$scope begin $ivl_for_loop3 $end
$var integer 32 X row [31:0] $end
$scope begin $ivl_for_loop4 $end
$var integer 32 Y col [31:0] $end
$upscope $end
$upscope $end
$scope begin $ivl_for_loop5 $end
$var integer 32 Z row [31:0] $end
$scope begin $ivl_for_loop6 $end
$var integer 32 [ col [31:0] $end
$upscope $end
$upscope $end
$scope begin $ivl_for_loop7 $end
$var integer 32 \ row [31:0] $end
$scope begin $ivl_for_loop8 $end
$var integer 32 ] col [31:0] $end
$upscope $end
$upscope $end
$upscope $end
$scope module uart_tx_4in4_u $end
$var wire 1 % clk $end
$var wire 64 ^ input_dato [63:0] $end
$var wire 1 2 next_uart $end
$var wire 1 ' rst $end
$var wire 1 _ start $end
$var reg 4 ` Con [3:0] $end
$var reg 64 a Dato [63:0] $end
$var reg 1 b First $end
$var reg 1 c Flat $end
$var reg 8 d Output_dato [7:0] $end
$var reg 1 ; flat_out $end
$upscope $end
$upscope $end
$upscope $end
$upscope $end
$enddefinitions $end
#0
$dumpvars
b0 d
0c
0b
b0 a
b0 `
0_
b0 ^
b0 ]
b0 \
b100 [
b100 Z
b100 Y
b100 X
b0 W
b0 V
b0 U
b0 T
b0 S
b0 R
b0 Q
b0 P
b0 O
b111 N
b111 M
b0 L
b0 K
b0 J
b0 I
b0 H
b0 G
b0 F
0E
b0 D
0C
0B
0A
0@
0?
0>
0=
b0 <
0;
b0 :
b0 9
b0 8
07
06
05
04
03
02
01
00
b0 /
bx .
0-
b0 ,
b0 +
b10000 *
b0 )
b0 (
0'
0&
1%
b0 $
bx #
b0 "
b10000 !
$end
#50000
0%
#100000
b111 N
b100 [
b100 Z
1%
#150000
0%
#200000
b111 N
b100 [
b100 Z
1%
#250000
0%
#300000
b111 N
b100 [
b100 Z
1%
#350000
0%
#400000
b111 N
b100 [
b100 Z
1%
#450000
0%
#500000
b111 N
b100 [
b100 Z
1%
#550000
0%
#600000
b111 N
b100 [
b100 Z
1%
#650000
0%
#700000
b111 N
b100 [
b100 Z
1%
#750000
0%
#800000
b111 N
b100 [
b100 Z
1%
#850000
0%
#900000
1'
b111 N
b100 [
b100 Z
1%
#950000
0%
#1000000
13
b1 $
b1 ,
b10111 (
b10111 )
b10111 /
b10111 I
b1 W
1%
#1050000
0%
#1100000
14
b10 W
1A
1%
#1150000
0%
#1200000
04
1B
b1 U
b1 J
1%
#1250000
0%
#1300000
03
b0 $
b0 ,
b10 U
1%
#1350000
0%
#1400000
0A
b11 U
1%
#1450000
0%
#1500000
b100 U
0B
1%
#1550000
0%
#1600000
b1 T
b0 U
1%
#1650000
0%
#1700000
b1 U
1%
#1750000
0%
#1800000
13
b1 $
b1 ,
b110110 (
b110110 )
b110110 /
b110110 I
b10 U
1%
#1850000
0%
#1900000
14
b11 U
1A
1%
#1950000
0%
#2000000
04
1B
b100 U
b10 J
1%
#2050000
0%
#2100000
03
b0 $
b0 ,
b10 T
b0 U
1%
#2150000
0%
#2200000
0A
b1 U
1%
#2250000
0%
#2300000
b10 U
0B
1%
#2350000
0%
#2400000
b11 U
1%
#2450000
0%
#2500000
b100 U
1%
#2550000
0%
#2600000
13
b1 $
b1 ,
b1111011 (
b1111011 )
b1111011 /
b1111011 I
b11 T
b0 U
1%
#2650000
0%
#2700000
14
b1 U
1A
1%
#2750000
0%
#2800000
04
1B
b10 U
b11 J
1%
#2850000
0%
#2900000
03
b0 $
b0 ,
b11 U
1%
#2950000
0%
#3000000
0A
b100 U
1%
#3050000
0%
#3100000
b1 S
b0 T
b0 U
0B
1%
#3150000
0%
#3200000
b1 U
1%
#3250000
0%
#3300000
b10 U
1%
#3350000
0%
#3400000
13
b1 $
b1 ,
b11111011 (
b11111011 )
b11111011 /
b11111011 I
b11 U
1%
#3450000
0%
#3500000
14
b100 U
1A
1%
#3550000
0%
#3600000
04
1B
b1 T
b0 U
b100 J
1%
#3650000
0%
#3700000
03
b0 $
b0 ,
b1 U
1%
#3750000
0%
#3800000
0A
b10 U
1%
#3850000
0%
#3900000
b11 U
0B
1%
#3950000
0%
#4000000
b100 U
1%
#4050000
0%
#4100000
b10 T
b0 U
1%
#4150000
0%
#4200000
13
b1 $
b1 ,
b1000 (
b1000 )
b1000 /
b1000 I
b1 U
1%
#4250000
0%
#4300000
14
b10 U
1A
1%
#4350000
0%
#4400000
04
1B
b11 U
b101 J
1%
#4450000
0%
#4500000
03
b0 $
b0 ,
b100 U
1%
#4550000
0%
#4600000
0A
b11 T
b0 U
1%
#4650000
0%
#4700000
b1 U
0B
1%
#4750000
0%
#4800000
b10 U
1%
#4850000
0%
#4900000
b11 U
1%
#4950000
0%
#5000000
13
b1 $
b1 ,
b1100101 (
b1100101 )
b1100101 /
b1100101 I
b100 U
1%
#5050000
0%
#5100000
14
b10 S
b0 T
b0 U
1A
1%
#5150000
0%
#5200000
04
1B
b1 U
b110 J
1%
#5250000
0%
#5300000
03
b0 $
b0 ,
b10 U
1%
#5350000
0%
#5400000
0A
b11 U
1%
#5450000
0%
#5500000
b100 U
0B
1%
#5550000
0%
#5600000
b1 T
b0 U
1%
#5650000
0%
#5700000
b1 U
1%
#5750000
0%
#5800000
13
b1 $
b1 ,
b11011101 (
b11011101 )
b11011101 /
b11011101 I
b10 U
1%
#5850000
0%
#5900000
14
b11 U
1A
1%
#5950000
0%
#6000000
04
1B
b100 U
b111 J
1%
#6050000
0%
#6100000
03
b0 $
b0 ,
b10 T
b0 U
1%
#6150000
0%
#6200000
0A
b1 U
1%
#6250000
0%
#6300000
b10 U
0B
1%
#6350000
0%
#6400000
b11 U
1%
#6450000
0%
#6500000
b100 U
1%
#6550000
0%
#6600000
13
b1 $
b1 ,
b10010001 (
b10010001 )
b10010001 /
b10010001 I
b11 T
b0 U
1%
#6650000
0%
#6700000
14
b1 U
1A
1%
#6750000
0%
#6800000
b100 Y
b100 X
04
b0 J
b1001000111011101011001010000100011111011011110110011011000010111 :
b1001000111011101011001010000100011111011011110110011011000010111 K
b1001000111011101011001010000100011111011011110110011011000010111 Q
1B
b10 U
17
b111 O
b1001000111011101011001010000100011111011011110110011011000010111 L
1%
#6850000
0%
#6900000
03
b0 $
b0 ,
b100 Y
b100 X
b11 U
1C
b1001000111011101011001010000100011111011011110110011011000010111 D
b1001000111011101011001010000100011111011011110110011011000010111 P
07
1%
#6950000
0%
#7000000
0A
b100 U
b110110 R
1%
#7050000
0%
#7100000
b11 S
b0 T
b0 U
b0 R
0B
1%
#7150000
0%
#7200000
b1 U
b1011011 R
1%
#7250000
0%
#7300000
b10 U
b11101010 R
1%
#7350000
0%
#7400000
b11 U
b11110010 R
1%
#7450000
0%
#7500000
b100 U
b1100111 R
1%
#7550000
0%
#7600000
b1 T
b0 U
b0 R
1%
#7650000
0%
#7700000
b1 U
b1101 R
1%
#7750000
0%
#7800000
b10 U
b1101000 R
1%
#7850000
0%
#7900000
b11 U
1%
#7950000
0%
#8000000
b100 U
b11011101 R
1%
#8050000
0%
#8100000
b10 T
b0 U
b0 R
1%
#8150000
0%
#8200000
b1 U
b1001110 R
1%
#8250000
0%
#8300000
b10 U
b11011101 R
1%
#8350000
0%
#8400000
13
b1 $
b1 ,
b1101000 (
b1101000 )
b1101000 /
b1101000 I
b11 U
b11100010 R
1%
#8450000
0%
#8500000
14
b100 U
b11101011 R
1A
1%
#8550000
0%
#8600000
04
b1 J
1B
b11 T
b0 U
b0 R
1%
#8650000
0%
#8700000
03
b0 $
b0 ,
b1 U
b100111 R
1%
#8750000
0%
#8800000
0A
b10 U
b11101010 R
1%
#8850000
0%
#8900000
b11 U
b11110000 R
0B
1%
#8950000
0%
#9000000
b100 U
b1000001 R
1%
#9050000
0%
#9100000
b11 W
b0 S
b0 T
b0 U
b0 R
1%
#9150000
0%
#9200000
13
b1 $
b1 ,
b1010 (
b1010 )
b1010 /
b1010 I
b100 W
b1101111010111011000000000000000000000000000000000000000000000 8
b1101111010111011000000000000000000000000000000000000000000000 F
b1101111010111011000000000000000000000000000000000000000000000 V
b100 \
b100 ]
1%
#9250000
0%
#9300000
14
b1101111010111011000000000000000000000000000000000000000000000 9
b1101111010111011000000000000000000000000000000000000000000000 G
b1101111010111011000000000000000000000000000000000000000000000 ^
1A
b1101111010111011000000000000000000000000000000000000000000000 H
b0 W
1%
#9350000
0%
#9400000
04
b1 W
b10 J
1B
1%
#9450000
0%
#9500000
03
b0 $
b0 ,
b10 W
1%
#9550000
0%
#9600000
b1 U
b110001 R
0A
1%
#9650000
0%
#9700000
0B
b10 U
b111100 R
1%
#9750000
0%
#9800000
b11 U
b1101100 R
1%
#9850000
0%
#9900000
b100 U
b10010011 R
1%
#9950000
0%
#10000000
13
b1 $
b1 ,
b1111001 (
b1111001 )
b1111001 /
b1111001 I
b1 T
b0 U
b0 R
1%
#10050000
0%
#10100000
14
1A
b1 U
b111 R
1%
#10150000
0%
#10200000
04
b10 U
b1110 R
b11 J
1B
1%
#10250000
0%
#10300000
03
b0 $
b0 ,
b11 U
1%
#10350000
0%
#10400000
b100 U
b110101 R
0A
1%
#10450000
0%
#10500000
0B
b10 T
b0 U
b0 R
1%
#10550000
0%
#10600000
b1 U
b101010 R
1%
#10650000
0%
#10700000
b10 U
b110101 R
1%
#10750000
0%
#10800000
13
b1 $
b1 ,
b11101 (
b11101 )
b11101 /
b11101 I
b11 U
b1010011 R
1%
#10850000
0%
#10900000
14
1A
b100 U
b1010110 R
1%
#10950000
0%
#11000000
04
b11 T
b0 U
b0 R
b100 J
1B
1%
#11050000
0%
#11100000
03
b0 $
b0 ,
b1 U
b10101 R
1%
#11150000
0%
#11200000
b10 U
b100100 R
0A
1%
#11250000
0%
#11300000
0B
b11 U
b1001000 R
1%
#11350000
0%
#11400000
b100 U
b1100011 R
1%
#11450000
0%
#11500000
b1 S
b0 T
b0 U
b0 R
1%
#11550000
0%
#11600000
13
b1 $
b1 ,
b100010 (
b100010 )
b100010 /
b100010 I
b1 U
b1001101 R
1%
#11650000
0%
#11700000
14
1A
b10 U
b10011010 R
1%
#11750000
0%
#11800000
04
b11 U
b11110010 R
b101 J
1B
1%
#11850000
0%
#11900000
03
b0 $
b0 ,
b100 U
b10110101 R
1%
#11950000
0%
#12000000
b1 T
b0 U
b0 R
0A
1%
#12050000
0%
#12100000
0B
b1 U
b1011 R
1%
#12150000
0%
#12200000
b10 U
b111100 R
1%
#12250000
0%
#12300000
b11 U
1%
#12350000
0%
#12400000
13
b1 $
b1 ,
b11111011 (
b11111011 )
b11111011 /
b11111011 I
b100 U
b11111111 R
1%
#12450000
0%
#12500000
14
1A
b10 T
b0 U
b0 R
1%
#12550000
0%
#12600000
04
b1 U
b1000010 R
b110 J
1B
1%
#12650000
0%
#12700000
03
b0 $
b0 ,
b10 U
b10001111 R
1%
#12750000
0%
#12800000
b11 U
b11000110 R
0A
1%
#12850000
0%
#12900000
0B
b100 U
b11010101 R
1%
#12950000
0%
#13000000
b11 T
b0 U
b0 R
1%
#13050000
0%
#13100000
b1 U
b100001 R
1%
#13150000
0%
#13200000
13
b1 $
b1 ,
b1100110 (
b1100110 )
b1100110 /
b1100110 I
b10 U
b10001010 R
1%
#13250000
0%
#13300000
14
1A
b11 U
b11001100 R
1%
#13350000
0%
#13400000
04
b100 U
b1010011 R
b111 J
1B
1%
#13450000
0%
#13500000
03
b0 $
b0 ,
b10 S
b0 T
b0 U
b0 R
1%
#13550000
0%
#13600000
b1 U
b111000 R
0A
1%
#13650000
0%
#13700000
0B
b10 U
1%
#13750000
0%
#13800000
b11 U
b1100000 R
1%
#13850000
0%
#13900000
b100 U
b10101110 R
1%
#13950000
0%
#14000000
13
b1 $
b1 ,
b10000100 (
b10000100 )
b10000100 /
b10000100 I
b1 T
b0 U
b0 R
1%
#14050000
0%
#14100000
14
1A
b1 U
b1000 R
1%
#14150000
0%
#14200000
b100 Y
b100 X
04
b0 J
b1000010001100110111110110010001000011101011110010000101001101000 :
b1000010001100110111110110010001000011101011110010000101001101000 K
b1000010001100110111110110010001000011101011110010000101001101000 Q
b10 U
17
1B
b111 O
b1000010001100110111110110010001000011101011110010000101001101000 L
1%
#14250000
0%
#14300000
03
b0 $
b0 ,
1E
0C
b11 U
b10010 R
07
1%
#14350000
0%
#14400000
b100 U
b110110 R
0E
0A
1%
#14450000
0%
#14500000
0B
b10 T
b0 U
b0 R
1%
#14550000
0%
#14600000
b1 U
b1010000 R
1%
#14650000
0%
#14700000
b10 U
1%
#14750000
0%
#14800000
b11 U
b10000111 R
1%
#14850000
0%
#14900000
b100 U
b10011111 R
1%
#14950000
0%
#15000000
b11 T
b0 U
b0 R
1%
#15050000
0%
#15100000
b1 U
1%
#15150000
0%
#15200000
b10 U
1%
#15250000
0%
#15300000
b11 U
b1001011 R
1%
#15350000
0%
#15400000
b100 U
b1111011 R
1%
#15450000
0%
#15500000
b11 S
b0 T
b0 U
b0 R
1%
#15550000
0%
#15600000
b1 U
b1101000 R
1%
#15650000
0%
#15700000
b10 U
b11011101 R
1%
#15750000
0%
#15800000
b11 U
b11011111 R
1%
#15850000
0%
#15900000
b100 U
b10101 R
1%
#15950000
0%
#16000000
b1 T
b0 U
b0 R
1%
#16050000
0%
#16100000
b1 U
b1001110 R
1%
#16150000
0%
#16200000
b10 U
b10101001 R
1%
#16250000
0%
#16300000
b11 U
b10101011 R
1%
#16350000
0%
#16400000
b100 U
b11100001 R
1%
#16450000
0%
#16500000
b10 T
b0 U
b0 R
1%
#16550000
0%
#16600000
b1 U
b10000010 R
1%
#16650000
0%
#16700000
b10 U
b101011 R
1%
#16750000
0%
#16800000
b11 U
b110110 R
1%
#16850000
0%
#16900000
b100 U
b1011010 R
1%
#16950000
0%
#17000000
b11 T
b0 U
b0 R
1%
#17050000
0%
#17100000
b1 U
1%
#17150000
0%
#17200000
b10 U
b1101 R
1%
#17250000
0%
#17300000
b11 U
b11100 R
1%
#17350000
0%
#17400000
b100 U
b1100100 R
1%
#17450000
0%
#17500000
b11 W
b0 S
b0 T
b0 U
b0 R
1%
#17550000
0%
#17600000
b100 W
b100101000010101101111110110111000110101111101010011011001010011 8
b100101000010101101111110110111000110101111101010011011001010011 F
b100101000010101101111110110111000110101111101010011011001010011 V
b100 ]
b100 \
1%
#17650000
0%
#17700000
b100101000010101101111110110111000110101111101010011011001010011 9
b100101000010101101111110110111000110101111101010011011001010011 G
b100101000010101101111110110111000110101111101010011011001010011 ^
b100101000010101101111110110111000110101111101010011011001010011 H
b0 W
1%
#17750000
0%
#17800000
b1 W
1%
#17850000
0%
#17900000
b10 W
1%
#17950000
0%
#18000000
b1 U
b111000 R
1%
#18050000
0%
#18100000
b10 U
b1000001 R
1%
#18150000
0%
#18200000
b11 U
b1001101 R
1%
#18250000
0%
#18300000
b100 U
b1011111 R
1%
#18350000
0%
#18400000
b1 T
b0 U
b0 R
1%
#18450000
0%
#18500000
b1 U
b101010 R
1%
#18550000
0%
#18600000
b10 U
b110001 R
1%
#18650000
0%
#18700000
b11 U
b111101 R
1%
#18750000
0%
#18800000
b100 U
b1001111 R
1%
#18850000
0%
#18900000
b10 T
b0 U
b0 R
1%
#18950000
0%
#19000000
b1 U
b1000110 R
1%
#19050000
0%
#19100000
b10 U
b1010011 R
1%
#19150000
0%
#19200000
b11 U
b10010101 R
1%
#19250000
0%
#19300000
b100 U
b10100001 R
1%
#19350000
0%
#19400000
b11 T
b0 U
b0 R
1%
#19450000
0%
#19500000
b1 U
1%
#19550000
0%
#19600000
b10 U
b1 R
1%
#19650000
0%
#19700000
b11 U
b1011011 R
1%
#19750000
0%
#19800000
b100 U
b1110011 R
1%
#19850000
0%
#19900000
b1 S
b0 T
b0 U
b0 R
1%
#19950000
0%
#20000000
b1 U
b1011000 R
1%
#20050000
0%
#20100000
b10 U
b10010111 R
1%
#20150000
0%
#20200000
b11 U
b10101101 R
1%
#20250000
0%
#20300000
b100 U
b111 R
1%
#20350000
0%
#20400000
b1 T
b0 U
b0 R
1%
#20450000
0%
#20500000
b1 U
b1000010 R
1%
#20550000
0%
#20600000
b10 U
b1110011 R
1%
#20650000
0%
#20700000
b11 U
b10001001 R
1%
#20750000
0%
#20800000
b100 U
b11100011 R
1%
#20850000
0%
#20900000
b10 T
b0 U
b0 R
1%
#20950000
0%
#21000000
b1 U
b1101110 R
1%
#21050000
0%
#21100000
b10 U
b11001001 R
1%
#21150000
0%
#21200000
b11 U
b1000010 R
1%
#21250000
0%
#21300000
b100 U
b1111110 R
1%
#21350000
0%
#21400000
b11 T
b0 U
b0 R
1%
#21450000
0%
#21500000
b1 U
1%
#21550000
0%
#21600000
b10 U
b111 R
1%
#21650000
0%
#21700000
b11 U
b10101100 R
1%
#21750000
0%
#21800000
b100 U
b100100 R
1%
#21850000
0%
#21900000
b10 S
b0 T
b0 U
b0 R
1%
#21950000
0%
#22000000
b1 U
b1000000 R
1%
#22050000
0%
#22100000
b10 U
1%
#22150000
0%
#22200000
b11 U
b1001010 R
1%
#22250000
0%
#22300000
b100 U
b1101110 R
1%
#22350000
0%
#22400000
b1 T
b0 U
b0 R
1%
#22450000
0%
#22500000
b1 U
b110000 R
1%
#22550000
0%
#22600000
b10 U
1%
#22650000
0%
#22700000
b11 U
b111010 R
1%
#22750000
0%
#22800000
b100 U
b1011110 R
1%
#22850000
0%
#22900000
b10 T
b0 U
b0 R
1%
#22950000
0%
#23000000
b1 U
b1010000 R
1%
#23050000
0%
#23100000
b10 U
1%
#23150000
0%
#23200000
b11 U
b10000111 R
1%
#23250000
0%
#23300000
b100 U
b10011111 R
1%
#23350000
0%
#23400000
b11 T
b0 U
b0 R
1%
#23450000
0%
#23500000
b1 U
1%
#23550000
0%
#23600000
b10 U
1%
#23650000
0%
#23700000
b11 U
b1001011 R
1%
#23750000
0%
#23800000
b100 U
b1111011 R
1%
#23850000
0%
#23900000
b11 S
b0 T
b0 U
b0 R
1%
#23950000
0%
#24000000
b1 U
b1101000 R
1%
#24050000
0%
#24100000
b10 U
b11011101 R
1%
#24150000
0%
#24200000
b11 U
b11011111 R
1%
#24250000
0%
#24300000
b100 U
b10101 R
1%
#24350000
0%
#24400000
b1 T
b0 U
b0 R
1%
#24450000
0%
#24500000
b1 U
b1001110 R
1%
#24550000
0%
#24600000
b10 U
b10101001 R
1%
#24650000
0%
#24700000
b11 U
b10101011 R
1%
#24750000
0%
#24800000
b100 U
b11100001 R
1%
#24850000
0%
#24900000
b10 T
b0 U
b0 R
1%
#24950000
0%
#25000000
b1 U
b10000010 R
1%
#25050000
0%
#25100000
b10 U
b101011 R
1%
#25150000
0%
#25200000
b11 U
b110110 R
1%
#25250000
0%
#25300000
b100 U
b1011010 R
1%
#25350000
0%
#25400000
b11 T
b0 U
b0 R
1%
#25450000
0%
#25500000
b1 U
1%
#25550000
0%
#25600000
b10 U
b1101 R
1%
#25650000
0%
#25700000
b11 U
b11100 R
1%
#25750000
0%
#25800000
b100 U
b1100100 R
1%
#25850000
0%
#25900000
b11 W
b0 S
b0 T
b0 U
b0 R
1%
#25950000
0%
#26000000
b100 W
b100101000010101101111111110111001001110001101110011000111111111 8
b100101000010101101111111110111001001110001101110011000111111111 F
b100101000010101101111111110111001001110001101110011000111111111 V
b100 ]
b100 \
1%
#26050000
0%
#26100000
b100101000010101101111111110111001001110001101110011000111111111 9
b100101000010101101111111110111001001110001101110011000111111111 G
b100101000010101101111111110111001001110001101110011000111111111 ^
b100101000010101101111111110111001001110001101110011000111111111 H
b0 W
1%
#26150000
0%
#26200000
b1 W
1%
#26250000
0%
#26300000
b10 W
1%
#26350000
0%
#26400000
b1 U
b111000 R
1%
#26450000
0%
#26500000
b10 U
b1000001 R
1%
#26550000
0%
#26600000
b11 U
b1001101 R
1%
#26650000
0%
#26700000
b100 U
b1011111 R
1%
#26750000
0%
#26800000
b1 T
b0 U
b0 R
1%
#26850000
0%
#26900000
b1 U
b101010 R
1%
#26950000
0%
#27000000
b10 U
b110001 R
1%
#27050000
0%
#27100000
b11 U
b111101 R
1%
#27150000
0%
#27200000
b100 U
b1001111 R
1%
#27250000
0%
#27300000
b10 T
b0 U
b0 R
1%
#27350000
0%
#27400000
b1 U
b1000110 R
1%
#27450000
0%
#27500000
b10 U
b1010011 R
1%
#27550000
0%
#27600000
b11 U
b10010101 R
1%
#27650000
0%
#27700000
b100 U
b10100001 R
1%
#27750000
0%
#27800000
b11 T
b0 U
b0 R
1%
#27850000
0%
#27900000
b1 U
1%
#27950000
0%
#28000000
b10 U
b1 R
1%
#28050000
0%
#28100000
b11 U
b1011011 R
1%
#28150000
0%
#28200000
b100 U
b1110011 R
1%
#28250000
0%
#28300000
b1 S
b0 T
b0 U
b0 R
1%
#28350000
0%
#28400000
b1 U
b1011000 R
1%
#28450000
0%
#28500000
b10 U
b10010111 R
1%
#28550000
0%
#28600000
b11 U
b10101101 R
1%
#28650000
0%
#28700000
b100 U
b111 R
1%
#28750000
0%
#28800000
b1 T
b0 U
b0 R
1%
#28850000
0%
#28900000
b1 U
b1000010 R
1%
#28950000
0%
#29000000
b10 U
b1110011 R
1%
#29050000
0%
#29100000
b11 U
b10001001 R
1%
#29150000
0%
#29200000
b100 U
b11100011 R
1%
#29250000
0%
#29300000
b10 T
b0 U
b0 R
1%
#29350000
0%
#29400000
b1 U
b1101110 R
1%
#29450000
0%
#29500000
b10 U
b11001001 R
1%
#29550000
0%
#29600000
b11 U
b1000010 R
1%
#29650000
0%
#29700000
b100 U
b1111110 R
1%
#29750000
0%
#29800000
b11 T
b0 U
b0 R
1%
#29850000
0%
#29900000
b1 U
1%
#29950000
0%
#30000000
b10 U
b111 R
1%
#30050000
0%
#30100000
b11 U
b10101100 R
1%
#30150000
0%
#30200000
b100 U
b100100 R
1%
#30250000
0%
#30300000
b10 S
b0 T
b0 U
b0 R
1%
#30350000
0%
#30400000
b1 U
b1000000 R
1%
#30450000
0%
#30500000
b10 U
1%
#30550000
0%
#30600000
b11 U
b1001010 R
1%
#30650000
0%
#30700000
b100 U
b1101110 R
1%
#30750000
0%
#30800000
b1 T
b0 U
b0 R
1%
#30850000
0%
#30900000
b1 U
b110000 R
1%
#30950000
0%
#31000000
b10 U
1%
#31050000
0%
#31100000
b11 U
b111010 R
1%
#31150000
0%
#31200000
b100 U
b1011110 R
1%
#31250000
0%
#31300000
b10 T
b0 U
b0 R
1%
#31350000
0%
#31400000
b1 U
b1010000 R
1%
#31450000
0%
#31500000
b10 U
1%
#31550000
0%
#31600000
b11 U
b10000111 R
1%
#31650000
0%
#31700000
b100 U
b10011111 R
1%
#31750000
0%
#31800000
b11 T
b0 U
b0 R
1%
#31850000
0%
#31900000
b1 U
1%
#31950000
0%
#32000000
b10 U
1%
#32050000
0%
#32100000
b11 U
b1001011 R
1%
#32150000
0%
#32200000
b100 U
b1111011 R
1%
#32250000
0%
#32300000
b11 S
b0 T
b0 U
b0 R
1%
#32350000
0%
#32400000
b1 U
b1101000 R
1%
#32450000
0%
#32500000
b10 U
b11011101 R
1%
#32550000
0%
#32600000
b11 U
b11011111 R
1%
#32650000
0%
#32700000
b100 U
b10101 R
1%
#32750000
0%
#32800000
b1 T
b0 U
b0 R
1%
#32850000
0%
#32900000
b1 U
b1001110 R
1%
#32950000
0%
#33000000
b10 U
b10101001 R
1%
#33050000
0%
#33100000
b11 U
b10101011 R
1%
#33150000
0%
#33200000
b100 U
b11100001 R
1%
#33250000
0%
#33300000
b10 T
b0 U
b0 R
1%
#33350000
0%
#33400000
b1 U
b10000010 R
1%
#33450000
0%
#33500000
b10 U
b101011 R
1%
#33550000
0%
#33600000
b11 U
b110110 R
1%
#33650000
0%
#33700000
b100 U
b1011010 R
1%
#33750000
0%
#33800000
b11 T
b0 U
b0 R
1%
#33850000
0%
#33900000
b1 U
1%
#33950000
0%
#34000000
b10 U
b1101 R
1%
#34050000
0%
#34100000
b11 U
b11100 R
1%
#34150000
0%
#34200000
b100 U
b1100100 R
1%
#34250000
0%
#34300000
b11 W
b0 S
b0 T
b0 U
b0 R
1%
#34350000
0%
#34400000
b100 W
b100 ]
b100 \
1%
#34450000
0%
#34500000
b0 W
1%
#34550000
0%
#34600000
b1 W
1%
#34650000
0%
#34700000
b10 W
1%
#34750000
0%
#34800000
b1 U
b111000 R
1%
#34850000
0%
#34900000
b10 U
b1000001 R
1%
#34950000
0%
#35000000
b11 U
b1001101 R
1%
#35050000
0%
#35100000
b100 U
b1011111 R
1%
#35150000
0%
#35200000
b1 T
b0 U
b0 R
1%
#35250000
0%
#35300000
b1 U
b101010 R
1%
#35350000
0%
#35400000
b10 U
b110001 R
1%
#35450000
0%
#35500000
b11 U
b111101 R
1%
#35550000
0%
#35600000
b100 U
b1001111 R
1%
#35650000
0%
#35700000
b10 T
b0 U
b0 R
1%
#35750000
0%
#35800000
b1 U
b1000110 R
1%
#35850000
0%
#35900000
b10 U
b1010011 R
1%
#35950000
0%
#36000000
b11 U
b10010101 R
1%
#36050000
0%
#36100000
b100 U
b10100001 R
1%
#36150000
0%
#36200000
b11 T
b0 U
b0 R
1%
#36250000
0%
#36300000
b1 U
1%
#36350000
0%
#36400000
b10 U
b1 R
1%
#36450000
0%
#36500000
b11 U
b1011011 R
1%
#36550000
0%
#36600000
b100 U
b1110011 R
1%
#36650000
0%
#36700000
b1 S
b0 T
b0 U
b0 R
1%
#36750000
0%
#36800000
b1 U
b1011000 R
1%
#36850000
0%
#36900000
b10 U
b10010111 R
1%
#36950000
0%
#37000000
b11 U
b10101101 R
1%
#37050000
0%
#37100000
b100 U
b111 R
1%
#37150000
0%
#37200000
b1 T
b0 U
b0 R
1%
#37250000
0%
#37300000
b1 U
b1000010 R
1%
#37350000
0%
#37400000
b10 U
b1110011 R
1%
#37450000
0%
#37500000
b11 U
b10001001 R
1%
#37550000
0%
#37600000
b100 U
b11100011 R
1%
#37650000
0%
#37700000
b10 T
b0 U
b0 R
1%
#37750000
0%
#37800000
b1 U
b1101110 R
1%
#37850000
0%
#37900000
b10 U
b11001001 R
1%
#37950000
0%
#38000000
b11 U
b1000010 R
1%
#38050000
0%
#38100000
b100 U
b1111110 R
1%
#38150000
0%
#38200000
b11 T
b0 U
b0 R
1%
#38250000
0%
#38300000
b1 U
1%
#38350000
0%
#38400000
b10 U
b111 R
1%
#38450000
0%
#38500000
b11 U
b10101100 R
1%
#38550000
0%
#38600000
b100 U
b100100 R
1%
#38650000
0%
#38700000
b10 S
b0 T
b0 U
b0 R
1%
#38750000
0%
#38800000
b1 U
b1000000 R
1%
#38850000
0%
#38900000
b10 U
1%
#38950000
0%
#39000000
b11 U
b1001010 R
1%
#39050000
0%
#39100000
b100 U
b1101110 R
1%
#39150000
0%
#39200000
b1 T
b0 U
b0 R
1%
#39250000
0%
#39300000
b1 U
b110000 R
1%
#39350000
0%
#39400000
b10 U
1%
#39450000
0%
