test/tb.vcd
$date
	Sat Sep  6 22:28:59 2025
$end
$version
	Icarus Verilog
$end
$timescale
	1ps
$end
$scope module tb $end
$var wire 8 ! uio_oe [7:0] $end
$var wire 8 " uo_out [7:0] $end
$var wire 8 # uio_out [7:0] $end
$var reg 1 $ clk $end
$var reg 1 % ena $end
$var reg 1 & rst_n $end
$var reg 8 ' ui_in [7:0] $end
$var reg 8 ( uio_in [7:0] $end
$scope module user_project $end
$var wire 1 $ clk $end
$var wire 1 % ena $end
$var wire 1 & rst_n $end
$var wire 8 ) ui_in [7:0] $end
$var wire 8 * uio_in [7:0] $end
$var wire 8 + uio_oe [7:0] $end
$var wire 8 , uo_out [7:0] $end
$var wire 8 - uio_out [7:0] $end
$var reg 1 . _unused $end
$scope module core $end
$var wire 8 / Datos_in [7:0] $end
$var wire 1 0 Ena_accu_Ena $end
$var wire 1 1 Ena_clear_Ena $end
$var wire 1 2 Ena_read $end
$var wire 1 3 Ena_read_Ena $end
$var wire 1 4 Ena_write $end
$var wire 1 5 Ena_write_Ena $end
$var wire 1 6 clear $end
$var wire 1 $ clk $end
$var wire 1 7 enable_accu $end
$var wire 1 & rst $end
$var wire 1 8 listo $end
$var wire 1 9 flat_64_comple $end
$var wire 64 : dato_in_64_bits_resultado [63:0] $end
$var wire 64 ; dato_in_64_bits_output [63:0] $end
$var wire 64 < dato_in_64_bits [63:0] $end
$var wire 1 = Ena_out $end
$var wire 8 > Datos_out [7:0] $end
$var reg 1 ? Ena_accu_retradado $end
$var reg 1 @ Ena_accu_retradado_re $end
$var reg 1 A Ena_clear_retradado $end
$var reg 1 B Ena_clear_retradado_re $end
$var reg 1 C Ena_read_retradado $end
$var reg 1 D Ena_read_retradado_re $end
$var reg 1 E Ena_write_retradado $end
$var reg 1 F Ena_write_retradado_re $end
$var reg 1 G conta_palabras $end
$var reg 1 H dato_disponible $end
$var reg 64 I dato_in_64_bits_A [63:0] $end
$var reg 1 J ena_TPU $end
$scope module accumulate_unit_u $end
$var wire 1 1 clear $end
$var wire 1 $ clock $end
$var wire 1 0 enable $end
$var wire 1 & reset $end
$var wire 64 K result [63:0] $end
$var wire 64 L out [63:0] $end
$var reg 64 M accumulator [63:0] $end
$upscope $end
$scope module four_palabras_Unit $end
$var wire 1 $ clk $end
$var wire 8 N dato [7:0] $end
$var wire 1 & rst $end
$var wire 1 5 rx_flat $end
$var reg 3 O con [2:0] $end
$var reg 64 P data_comple [63:0] $end
$var reg 1 9 flat_comple $end
$var reg 64 Q var_data_comple [63:0] $end
$scope begin $ivl_for_loop0 $end
$var integer 32 R j [31:0] $end
$upscope $end
$scope begin $ivl_for_loop1 $end
$var integer 32 S j [31:0] $end
$upscope $end
$scope begin $ivl_for_loop2 $end
$var integer 32 T i [31:0] $end
$upscope $end
$upscope $end
$scope module multiply_unit_u $end
$var wire 1 $ clk $end
$var wire 1 J enable $end
$var wire 64 U matrixA [63:0] $end
$var wire 64 V matrixB [63:0] $end
$var wire 1 & rst $end
$var reg 8 W accumulator [7:0] $end
$var reg 3 X i [2:0] $end
$var reg 3 Y j [2:0] $end
$var reg 3 Z k [2:0] $end
$var reg 1 8 listo $end
$var reg 64 [ result [63:0] $end
$var reg 3 \ state [2:0] $end
$scope begin $ivl_for_loop3 $end
$var integer 32 ] row [31:0] $end
$scope begin $ivl_for_loop4 $end
$var integer 32 ^ col [31:0] $end
$upscope $end
$upscope $end
$scope begin $ivl_for_loop5 $end
$var integer 32 _ row [31:0] $end
$scope begin $ivl_for_loop6 $end
$var integer 32 ` col [31:0] $end
$upscope $end
$upscope $end
$scope begin $ivl_for_loop7 $end
$var integer 32 a row [31:0] $end
$scope begin $ivl_for_loop8 $end
$var integer 32 b col [31:0] $end
$upscope $end
$upscope $end
$upscope $end
$scope module uart_tx_4in4_u $end
$var wire 1 $ clk $end
$var wire 64 c input_dato [63:0] $end
$var wire 1 3 next_uart $end
$var wire 1 & rst $end
$var wire 1 d start $end
$var reg 4 e Con [3:0] $end
$var reg 64 f Dato [63:0] $end
$var reg 1 g First $end
$var reg 1 h Flat $end
$var reg 8 i Output_dato [7:0] $end
$var reg 1 = flat_out $end
$upscope $end
$upscope $end
$upscope $end
$upscope $end
$enddefinitions $end
#0
$dumpvars
b0 i
0h
0g
b0 f
b0 e
0d
b0 c
b0 b
b0 a
b100 `
b100 _
b100 ^
b100 ]
b0 \
b0 [
b0 Z
b0 Y
b0 X
b0 W
b0 V
b0 U
b0 T
b111 S
b111 R
b0 Q
b0 P
b0 O
b0 N
b0 M
b0 L
b0 K
0J
b0 I
0H
0G
0F
0E
0D
0C
0B
0A
0@
0?
b0 >
0=
b0 <
b0 ;
b0 :
09
08
07
06
05
04
03
02
01
00
b0 /
0.
bz0zzzz -
b0 ,
b110000 +
b0 *
b0 )
b0 (
b0 '
0&
0%
1$
bz0zzzz #
b0 "
b110000 !
$end
#50000
0$
#100000
b111 S
b100 `
b100 _
1$
#150000
0$
#200000
b111 S
b100 `
b100 _
1$
#250000
0$
#300000
b111 S
b100 `
b100 _
1$
#350000
0$
#400000
b111 S
b100 `
b100 _
1$
#450000
0$
#500000
b111 S
b100 `
b100 _
1$
#550000
0$
#600000
b111 S
b100 `
b100 _
1$
#650000
0$
#700000
b111 S
b100 `
b100 _
1$
#750000
0$
#800000
b111 S
b100 `
b100 _
1$
#850000
0$
#900000
1&
b111 S
b100 `
b100 _
1$
#950000
0$
#1000000
14
b1 (
b1 *
b10111 '
b10111 )
b10111 /
b10111 N
1$
#1050000
0$
#1100000
15
1E
1$
#1150000
0$
#1200000
05
1F
b1 O
1$
#1250000
0$
#1300000
04
b0 (
b0 *
1$
#1350000
0$
#1400000
0E
1$
#1450000
0$
#1500000
0F
1$
#1550000
0$
#1600000
1$
#1650000
0$
#1700000
1$
#1750000
0$
#1800000
14
b1 (
b1 *
b110110 '
b110110 )
b110110 /
b110110 N
1$
#1850000
0$
#1900000
15
1E
1$
#1950000
0$
#2000000
05
1F
b10 O
1$
#2050000
0$
#2100000
04
b0 (
b0 *
1$
#2150000
0$
#2200000
0E
1$
#2250000
0$
#2300000
0F
1$
#2350000
0$
#2400000
1$
#2450000
0$
#2500000
1$
#2550000
0$
#2600000
14
b1 (
b1 *
b1111011 '
b1111011 )
b1111011 /
b1111011 N
1$
#2650000
0$
#2700000
15
1E
1$
#2750000
0$
#2800000
05
1F
b11 O
1$
#2850000
0$
#2900000
04
b0 (
b0 *
1$
#2950000
0$
#3000000
0E
1$
#3050000
0$
#3100000
0F
1$
#3150000
0$
#3200000
1$
#3250000
0$
#3300000
1$
#3350000
0$
#3400000
14
b1 (
b1 *
b11111011 '
b11111011 )
b11111011 /
b11111011 N
1$
#3450000
0$
#3500000
15
1E
1$
#3550000
0$
#3600000
05
1F
b100 O
1$
#3650000
0$
#3700000
04
b0 (
b0 *
1$
#3750000
0$
#3800000
0E
1$
#3850000
0$
#3900000
0F
1$
#3950000
0$
#4000000
1$
#4050000
0$
#4100000
1$
#4150000
0$
#4200000
14
b1 (
b1 *
b1000 '
b1000 )
b1000 /
b1000 N
1$
#4250000
0$
#4300000
15
1E
1$
#4350000
0$
#4400000
05
1F
b101 O
1$
#4450000
0$
#4500000
04
b0 (
b0 *
1$
#4550000
0$
#4600000
0E
1$
#4650000
0$
#4700000
0F
1$
#4750000
0$
#4800000
1$
#4850000
0$
#4900000
1$
#4950000
0$
#5000000
14
b1 (
b1 *
b1100101 '
b1100101 )
b1100101 /
b1100101 N
1$
#5050000
0$
#5100000
15
1E
1$
#5150000
0$
#5200000
05
1F
b110 O
1$
#5250000
0$
#5300000
04
b0 (
b0 *
1$
#5350000
0$
#5400000
0E
1$
#5450000
0$
#5500000
0F
1$
#5550000
0$
#5600000
1$
#5650000
0$
#5700000
1$
#5750000
0$
#5800000
14
b1 (
b1 *
b11011101 '
b11011101 )
b11011101 /
b11011101 N
1$
#5850000
0$
#5900000
15
1E
1$
#5950000
0$
#6000000
05
1F
b111 O
1$
#6050000
0$
#6100000
04
b0 (
b0 *
1$
#6150000
0$
#6200000
0E
1$
#6250000
0$
#6300000
0F
1$
#6350000
0$
#6400000
1$
#6450000
0$
#6500000
1$
#6550000
0$
#6600000
14
b1 (
b1 *
b10010001 '
b10010001 )
b10010001 /
b10010001 N
1$
#6650000
0$
#6700000
15
1E
1$
#6750000
0$
#6800000
b100 ^
b100 ]
05
b0 O
b1001000111011101011001010000100011111011011110110011011000010111 <
b1001000111011101011001010000100011111011011110110011011000010111 P
b1001000111011101011001010000100011111011011110110011011000010111 V
1F
19
b111 T
b1001000111011101011001010000100011111011011110110011011000010111 Q
1$
#6850000
0$
#6900000
04
b0 (
b0 *
b100 ^
b100 ]
1G
b1001000111011101011001010000100011111011011110110011011000010111 I
b1001000111011101011001010000100011111011011110110011011000010111 U
09
1$
#6950000
0$
#7000000
0E
1$
#7050000
0$
#7100000
0F
1$
#7150000
0$
#7200000
1$
#7250000
0$
#7300000
1$
#7350000
0$
#7400000
1$
#7450000
0$
#7500000
1$
#7550000
0$
#7600000
1$
#7650000
0$
#7700000
1$
#7750000
0$
#7800000
1$
#7850000
0$
#7900000
1$
#7950000
0$
#8000000
1$
#8050000
0$
#8100000
1$
#8150000
0$
#8200000
1$
#8250000
0$
#8300000
1$
#8350000
0$
#8400000
14
b1 (
b1 *
b1101000 '
b1101000 )
b1101000 /
b1101000 N
1$
#8450000
0$
#8500000
15
1E
1$
#8550000
0$
#8600000
05
b1 O
1F
1$
#8650000
0$
#8700000
04
b0 (
b0 *
1$
#8750000
0$
#8800000
0E
1$
#8850000
0$
#8900000
0F
1$
#8950000
0$
#9000000
1$
#9050000
0$
#9100000
1$
#9150000
0$
#9200000
14
b1 (
b1 *
b1010 '
b1010 )
b1010 /
b1010 N
1$
#9250000
0$
#9300000
15
1E
1$
#9350000
0$
#9400000
05
b10 O
1F
1$
#9450000
0$
#9500000
04
b0 (
b0 *
1$
#9550000
0$
#9600000
0E
1$
#9650000
0$
#9700000
0F
1$
#9750000
0$
#9800000
1$
#9850000
0$
#9900000
1$
#9950000
0$
#10000000
14
b1 (
b1 *
b1111001 '
b1111001 )
b1111001 /
b1111001 N
1$
#10050000
0$
#10100000
15
1E
1$
#10150000
0$
#10200000
05
b11 O
1F
1$
#10250000
0$
#10300000
04
b0 (
b0 *
1$
#10350000
0$
#10400000
0E
1$
#10450000
0$
#10500000
0F
1$
#10550000
0$
#10600000
1$
#10650000
0$
#10700000
1$
#10750000
0$
#10800000
14
b1 (
b1 *
b11101 '
b11101 )
b11101 /
b11101 N
1$
#10850000
0$
#10900000
15
1E
1$
#10950000
0$
#11000000
05
b100 O
1F
1$
#11050000
0$
#11100000
04
b0 (
b0 *
1$
#11150000
0$
#11200000
0E
1$
#11250000
0$
#11300000
0F
1$
#11350000
0$
#11400000
1$
#11450000
0$
#11500000
1$
#11550000
0$
#11600000
14
b1 (
b1 *
b100010 '
b100010 )
b100010 /
b100010 N
1$
#11650000
0$
#11700000
15
1E
1$
#11750000
0$
#11800000
05
b101 O
1F
1$
#11850000
0$
#11900000
04
b0 (
b0 *
1$
#11950000
0$
#12000000
0E
1$
#12050000
0$
#12100000
0F
1$
#12150000
0$
#12200000
1$
#12250000
0$
#12300000
1$
#12350000
0$
#12400000
14
b1 (
b1 *
b11111011 '
b11111011 )
b11111011 /
b11111011 N
1$
#12450000
0$
#12500000
15
1E
1$
#12550000
0$
#12600000
05
b110 O
1F
1$
#12650000
0$
#12700000
04
b0 (
b0 *
1$
#12750000
0$
#12800000
0E
1$
#12850000
0$
#12900000
0F
1$
#12950000
0$
#13000000
1$
#13050000
0$
#13100000
1$
#13150000
0$
#13200000
14
b1 (
b1 *
b1100110 '
b1100110 )
b1100110 /
b1100110 N
1$
#13250000
0$
#13300000
15
1E
1$
#13350000
0$
#13400000
05
b111 O
1F
1$
#13450000
0$
#13500000
04
b0 (
b0 *
1$
#13550000
0$
#13600000
0E
1$
#13650000
0$
#13700000
0F
1$
#13750000
0$
#13800000
1$
#13850000
0$
#13900000
1$
#13950000
0$
#14000000
14
b1 (
b1 *
b10000100 '
b10000100 )
b10000100 /
b10000100 N
1$
#14050000
0$
#14100000
15
1E
1$
#14150000
0$
#14200000
b100 ^
b100 ]
05
b0 O
b1000010001100110111110110010001000011101011110010000101001101000 <
b1000010001100110111110110010001000011101011110010000101001101000 P
b1000010001100110111110110010001000011101011110010000101001101000 V
19
1F
b111 T
b1000010001100110111110110010001000011101011110010000101001101000 Q
1$
#14250000
0$
#14300000
04
b0 (
b0 *
1J
0G
09
1$
#14350000
0$
#14400000
0J
0E
b1 \
1$
#14450000
0$
#14500000
b10 \
0F
1$
#14550000
0$
#14600000
b1 Z
b111000 W
1$
#14650000
0$
#14700000
b10 Z
b1000001 W
1$
#14750000
0$
#14800000
b11 Z
b1001101 W
1$
#14850000
0$
#14900000
b100 Z
b1011111 W
1$
#14950000
0$
#15000000
b1 Y
b0 Z
b0 W
1$
#15050000
0$
#15100000
b1 Z
b101010 W
1$
#15150000
0$
#15200000
b10 Z
b110001 W
1$
#15250000
0$
#15300000
b11 Z
b111101 W
1$
#15350000
0$
#15400000
b100 Z
b1001111 W
1$
#15450000
0$
#15500000
b10 Y
b0 Z
b0 W
1$
#15550000
0$
#15600000
b1 Z
b1000110 W
1$
#15650000
0$
#15700000
b10 Z
b1010011 W
1$
#15750000
0$
#15800000
b11 Z
b10010101 W
1$
#15850000
0$
#15900000
b100 Z
b10100001 W
1$
#15950000
0$
#16000000
b11 Y
b0 Z
b0 W
1$
#16050000
0$
#16100000
b1 Z
1$
#16150000
0$
#16200000
b10 Z
b1 W
1$
#16250000
0$
#16300000
b11 Z
b1011011 W
1$
#16350000
0$
#16400000
b100 Z
b1110011 W
1$
#16450000
0$
#16500000
b1 X
b0 Y
b0 Z
b0 W
1$
#16550000
0$
#16600000
b1 Z
b1011000 W
1$
#16650000
0$
#16700000
b10 Z
b10010111 W
1$
#16750000
0$
#16800000
b11 Z
b10101101 W
1$
#16850000
0$
#16900000
b100 Z
b111 W
1$
#16950000
0$
#17000000
b1 Y
b0 Z
b0 W
1$
#17050000
0$
#17100000
b1 Z
b1000010 W
1$
#17150000
0$
#17200000
b10 Z
b1110011 W
1$
#17250000
0$
#17300000
b11 Z
b10001001 W
1$
#17350000
0$
#17400000
b100 Z
b11100011 W
1$
#17450000
0$
#17500000
b10 Y
b0 Z
b0 W
1$
#17550000
0$
#17600000
b1 Z
b1101110 W
1$
#17650000
0$
#17700000
b10 Z
b11001001 W
1$
#17750000
0$
#17800000
b11 Z
b1000010 W
1$
#17850000
0$
#17900000
b100 Z
b1111110 W
1$
#17950000
0$
#18000000
b11 Y
b0 Z
b0 W
1$
#18050000
0$
#18100000
b1 Z
1$
#18150000
0$
#18200000
b10 Z
b111 W
1$
#18250000
0$
#18300000
b11 Z
b10101100 W
1$
#18350000
0$
#18400000
b100 Z
b100100 W
1$
#18450000
0$
#18500000
b10 X
b0 Y
b0 Z
b0 W
1$
#18550000
0$
#18600000
b1 Z
b1000000 W
1$
#18650000
0$
#18700000
b10 Z
1$
#18750000
0$
#18800000
b11 Z
b1001010 W
1$
#18850000
0$
#18900000
b100 Z
b1101110 W
1$
#18950000
0$
#19000000
b1 Y
b0 Z
b0 W
1$
#19050000
0$
#19100000
b1 Z
b110000 W
1$
#19150000
0$
#19200000
b10 Z
1$
#19250000
0$
#19300000
b11 Z
b111010 W
1$
#19350000
0$
#19400000
b100 Z
b1011110 W
1$
#19450000
0$
#19500000
b10 Y
b0 Z
b0 W
1$
#19550000
0$
#19600000
b1 Z
b1010000 W
1$
#19650000
0$
#19700000
b10 Z
1$
#19750000
0$
#19800000
b11 Z
b10000111 W
1$
#19850000
0$
#19900000
b100 Z
b10011111 W
1$
#19950000
0$
#20000000
b11 Y
b0 Z
b0 W
1$
#20050000
0$
#20100000
b1 Z
1$
#20150000
0$
#20200000
b10 Z
1$
#20250000
0$
#20300000
b11 Z
b1001011 W
1$
#20350000
0$
#20400000
b100 Z
b1111011 W
1$
#20450000
0$
#20500000
b11 X
b0 Y
b0 Z
b0 W
1$
#20550000
0$
#20600000
b1 Z
b1101000 W
1$
#20650000
0$
#20700000
b10 Z
b11011101 W
1$
#20750000
0$
#20800000
b11 Z
b11011111 W
1$
#20850000
0$
#20900000
b100 Z
b10101 W
1$
#20950000
0$
#21000000
b1 Y
b0 Z
b0 W
1$
#21050000
0$
#21100000
b1 Z
b1001110 W
1$
#21150000
0$
#21200000
b10 Z
b10101001 W
1$
#21250000
0$
#21300000
b11 Z
b10101011 W
1$
#21350000
0$
#21400000
b100 Z
b11100001 W
1$
#21450000
0$
#21500000
b10 Y
b0 Z
b0 W
1$
#21550000
0$
#21600000
b1 Z
b10000010 W
1$
#21650000
0$
#21700000
b10 Z
b101011 W
1$
#21750000
0$
#21800000
b11 Z
b110110 W
1$
#21850000
0$
#21900000
b100 Z
b1011010 W
1$
#21950000
0$
#22000000
b11 Y
b0 Z
b0 W
1$
#22050000
0$
#22100000
b1 Z
1$
#22150000
0$
#22200000
b10 Z
b1101 W
1$
#22250000
0$
#22300000
b11 Z
b11100 W
1$
#22350000
0$
#22400000
b100 Z
b1100100 W
1$
#22450000
0$
#22500000
b11 \
b0 X
b0 Y
b0 Z
b0 W
1$
#22550000
0$
#22600000
18
b100 \
b100101000010101101111111110111001001110001101110011000111111111 :
b100101000010101101111111110111001001110001101110011000111111111 K
b100101000010101101111111110111001001110001101110011000111111111 [
b100 a
b100 b
1$
#22650000
0$
#22700000
b100101000010101101111111110111001001110001101110011000111111111 ;
b100101000010101101111111110111001001110001101110011000111111111 L
b100101000010101101111111110111001001110001101110011000111111111 c
1H
b100101000010101101111111110111001001110001101110011000111111111 M
08
b0 \
1$
#22750000
0$
#22800000
1$
#22850000
0$
#22900000
1$
#22950000
0$
#23000000
1$
#23050000
0$
#23100000
1$
#23150000
0$
#23200000
1$
#23250000
0$
#23300000
1$
#23350000
0$
#23400000
1$
#23450000
0$
#23500000
1$
#23550000
0$
#23600000
1$
#23650000
0$
#23700000
1$
#23750000
0$
#23800000
1$
#23850000
0$
#23900000
1$
#23950000
0$
#24000000
1$
#24050000
0$
#24100000
1$
#24150000
0$
#24200000
1$
#24250000
0$
#24300000
1$
#24350000
0$
#24400000
1$
#24450000
0$
#24500000
1$
#24550000
0$
#24600000
1$
#24650000
0$
#24700000
12
b10 (
b10 *
1$
#24750000
0$
#24800000
1d
13
1C
1$
#24850000
0$
#24900000
03
0d
1D
0H
1g
b100101000010101101111111110111001001110001101110011000111111111 f
bz0zzzz #
bz0zzzz -
0=
1h
1$
#24950000
0$
#25000000
02
b0 (
b0 *
b11111111 "
b11111111 ,
b11111111 >
b11111111 i
bz1zzzz #
bz1zzzz -
1=
b1 e
b1001010000101011011111111101110010011100011011100110001 f
0g
1$
#25050000
0$
#25100000
0C
bz0zzzz #
bz0zzzz -
0=
1$
#25150000
0$
#25200000
0D
1$
#25250000
0$
#25300000
12
b10 (
b10 *
1$
#25350000
0$
#25400000
13
1C
1$
#25450000
0$
#25500000
03
1D
b110001 "
b110001 ,
b110001 >
b110001 i
bz1zzzz #
bz1zzzz -
1=
b10 e
b10010100001010110111111111011100100111000110111 f
1$
#25550000
0$
#25600000
02
b0 (
b0 *
bz0zzzz #
bz0zzzz -
0=
1$
#25650000
0$
#25700000
0C
1$
#25750000
0$
#25800000
0D
1$
#25850000
0$
#25900000
12
b10 (
b10 *
1$
#25950000
0$
#26000000
13
1C
1$
#26050000
0$
#26100000
03
1D
b110111 "
b110111 ,
b110111 >
b110111 i
bz1zzzz #
bz1zzzz -
1=
b11 e
b100101000010101101111111110111001001110 f
1$
#26150000
0$
#26200000
02
b0 (
b0 *
bz0zzzz #
bz0zzzz -
0=
1$
#26250000
0$
#26300000
0C
1$
#26350000
0$
#26400000
0D
1$
#26450000
0$
#26500000
12
b10 (
b10 *
1$
#26550000
0$
#26600000
13
1C
1$
#26650000
0$
#26700000
03
1D
b1001110 "
b1001110 ,
b1001110 >
b1001110 i
bz1zzzz #
bz1zzzz -
1=
b100 e
b1001010000101011011111111101110 f
1$
#26750000
0$
#26800000
02
b0 (
b0 *
bz0zzzz #
bz0zzzz -
0=
1$
#26850000
0$
#26900000
0C
1$
#26950000
0$
#27000000
0D
1$
#27050000
0$
#27100000
12
b10 (
b10 *
1$
#27150000
0$
#27200000
13
1C
1$
#27250000
0$
#27300000
03
1D
b11101110 "
b11101110 ,
b11101110 >
b11101110 i
bz1zzzz #
bz1zzzz -
1=
b101 e
b10010100001010110111111 f
1$
#27350000
0$
#27400000
02
b0 (
b0 *
bz0zzzz #
bz0zzzz -
0=
1$
#27450000
0$
#27500000
0C
1$
#27550000
0$
#27600000
0D
1$
#27650000
0$
#27700000
12
b10 (
b10 *
1$
#27750000
0$
#27800000
13
1C
1$
#27850000
0$
#27900000
03
1D
b10111111 "
b10111111 ,
b10111111 >
b10111111 i
bz1zzzz #
bz1zzzz -
1=
b110 e
b100101000010101 f
1$
#27950000
0$
#28000000
02
b0 (
b0 *
bz0zzzz #
bz0zzzz -
0=
1$
#28050000
0$
#28100000
0C
1$
#28150000
0$
#28200000
0D
1$
#28250000
0$
#28300000
12
b10 (
b10 *
1$
#28350000
0$
#28400000
13
1C
1$
#28450000
0$
#28500000
03
1D
b10101 "
b10101 ,
b10101 >
b10101 i
bz1zzzz #
bz1zzzz -
1=
b111 e
b1001010 f
1$
#28550000
0$
#28600000
02
b0 (
b0 *
bz0zzzz #
bz0zzzz -
0=
1$
#28650000
0$
#28700000
0C
1$
#28750000
0$
#28800000
0D
1$
#28850000
0$
#28900000
12
b10 (
b10 *
1$
#28950000
0$
#29000000
13
1C
1$
#29050000
0$
#29100000
03
1D
b1001010 "
b1001010 ,
b1001010 >
b1001010 i
bz1zzzz #
bz1zzzz -
1=
b1000 e
b0 f
1$
#29150000
0$
#29200000
02
b0 (
b0 *
bz0zzzz #
bz0zzzz -
0=
1$
#29250000
0$
#29300000
0C
1$
#29350000
0$
#29400000
0D
1$
