test/tb.vcd
$date
	Wed Sep 10 16:52:53 2025
$end
$version
	Icarus Verilog
$end
$timescale
	1ps
$end
$scope module tb $end
$var wire 8 ! uio_oe [7:0] $end
$var wire 8 " uo_out [7:0] $end
$var wire 8 # uio_out [7:0] $end
$var reg 1 $ clk $end
$var reg 1 % ena $end
$var reg 1 & rst_n $end
$var reg 8 ' ui_in [7:0] $end
$var reg 8 ( uio_in [7:0] $end
$scope module user_project $end
$var wire 1 $ clk $end
$var wire 1 % ena $end
$var wire 1 & rst_n $end
$var wire 8 ) ui_in [7:0] $end
$var wire 8 * uio_in [7:0] $end
$var wire 8 + uio_oe [7:0] $end
$var wire 8 , uo_out [7:0] $end
$var wire 8 - uio_out [7:0] $end
$var reg 1 . _unused $end
$scope module core $end
$var wire 8 / Datos_in [7:0] $end
$var wire 1 0 Ena_accu_Ena $end
$var wire 1 1 Ena_clear_Ena $end
$var wire 1 2 Ena_read $end
$var wire 1 3 Ena_read_Ena $end
$var wire 1 4 Ena_write $end
$var wire 1 5 Ena_write_Ena $end
$var wire 1 6 clear $end
$var wire 1 $ clk $end
$var wire 1 7 enable_accu $end
$var wire 1 & rst $end
$var wire 1 8 listo $end
$var wire 1 9 flat_out_tx $end
$var wire 1 : flat_64_comple $end
$var wire 16 ; dato_in_64_bits_resultado [15:0] $end
$var wire 16 < dato_in_64_bits_output [15:0] $end
$var wire 16 = dato_in_64_bits [15:0] $end
$var wire 8 > Datos_out [7:0] $end
$var reg 1 ? Ena_accu_retradado $end
$var reg 1 @ Ena_accu_retradado_re $end
$var reg 1 A Ena_clear_retradado $end
$var reg 1 B Ena_clear_retradado_re $end
$var reg 1 C Ena_out $end
$var reg 1 D Ena_read_retradado $end
$var reg 1 E Ena_read_retradado_re $end
$var reg 1 F Ena_write_retradado $end
$var reg 1 G Ena_write_retradado_re $end
$var reg 1 H conta_palabras $end
$var reg 1 I dato_disponible $end
$var reg 16 J dato_in_64_bits_A [15:0] $end
$var reg 1 K ena_TPU $end
$var reg 3 L estado_actual [2:0] $end
$var reg 1 M flat_Ena_accu_Ena $end
$scope module accumulate_unit_u $end
$var wire 1 1 clear $end
$var wire 1 $ clock $end
$var wire 1 M enable $end
$var wire 1 & reset $end
$var wire 16 N result [15:0] $end
$var wire 1 8 listo $end
$var reg 16 O accumulator [15:0] $end
$var reg 16 P out [15:0] $end
$upscope $end
$scope module four_palabras_Unit $end
$var wire 1 $ clk $end
$var wire 8 Q dato [7:0] $end
$var wire 1 & rst $end
$var wire 1 5 rx_flat $end
$var reg 3 R con [2:0] $end
$var reg 16 S data_comple [15:0] $end
$var reg 1 : flat_comple $end
$var reg 8 T mem [7:0] $end
$upscope $end
$scope module multiply_unit_u $end
$var wire 1 $ clk $end
$var wire 1 K enable $end
$var wire 16 U matrixA [15:0] $end
$var wire 16 V matrixB [15:0] $end
$var wire 1 & rst $end
$var reg 8 W accumulator [7:0] $end
$var reg 2 X i [1:0] $end
$var reg 2 Y j [1:0] $end
$var reg 2 Z k [1:0] $end
$var reg 1 8 listo $end
$var reg 16 [ result [15:0] $end
$var reg 3 \ state [2:0] $end
$scope begin $ivl_for_loop0 $end
$var integer 32 ] row [31:0] $end
$scope begin $ivl_for_loop1 $end
$var integer 32 ^ col [31:0] $end
$upscope $end
$upscope $end
$scope begin $ivl_for_loop2 $end
$var integer 32 _ row [31:0] $end
$scope begin $ivl_for_loop3 $end
$var integer 32 ` col [31:0] $end
$upscope $end
$upscope $end
$scope begin $ivl_for_loop4 $end
$var integer 32 a row [31:0] $end
$scope begin $ivl_for_loop5 $end
$var integer 32 b col [31:0] $end
$upscope $end
$upscope $end
$upscope $end
$scope module uart_tx_u $end
$var wire 1 $ clk $end
$var wire 16 c input_dato [15:0] $end
$var wire 1 3 next_uart $end
$var wire 1 & rst $end
$var wire 1 d start $end
$var reg 2 e Con [1:0] $end
$var reg 16 f Dato [15:0] $end
$var reg 1 g First $end
$var reg 1 h Flat $end
$var reg 8 i Output_dato [7:0] $end
$var reg 1 9 flat_out $end
$upscope $end
$upscope $end
$upscope $end
$upscope $end
$enddefinitions $end
#0
$dumpvars
b0 i
0h
0g
b0 f
b0 e
0d
bx c
b0 b
b0 a
b10 `
b10 _
b10 ^
b10 ]
b0 \
b0 [
b0 Z
b0 Y
b0 X
b0 W
b0 V
b0 U
b0 T
b0 S
b0 R
b0 Q
bx P
b0 O
b0 N
0M
b0 L
0K
b0 J
0I
0H
0G
0F
0E
0D
0C
0B
0A
0@
0?
b0 >
b0 =
bx <
b0 ;
0:
09
08
07
06
05
04
03
02
01
00
b0 /
0.
b0 -
b0 ,
b10000 +
b0 *
b0 )
b0 (
b0 '
0&
1%
1$
b0 #
b0 "
b10000 !
$end
#50000
0$
#100000
b10 `
b10 _
1$
#150000
0$
#200000
b10 `
b10 _
1$
#250000
0$
#300000
b10 `
b10 _
1$
#350000
0$
#400000
b10 `
b10 _
1$
#450000
0$
#500000
b10 `
b10 _
1$
#550000
0$
#600000
b10 `
b10 _
1$
#650000
0$
#700000
b10 `
b10 _
1$
#750000
0$
#800000
b10 `
b10 _
1$
#850000
0$
#900000
1&
b10 `
b10 _
1$
#950000
0$
#1000000
b0 <
b0 P
b0 c
1$
#1050000
0$
#1100000
1$
#1150000
0$
#1200000
1$
#1250000
0$
#1300000
1$
#1350000
0$
#1400000
1$
#1450000
0$
#1500000
1$
#1550000
0$
#1600000
1$
#1650000
0$
#1700000
1$
#1750000
0$
#1800000
1$
#1850000
0$
#1900000
1$
#1950000
0$
#2000000
1$
#2050000
0$
#2100000
1$
#2150000
0$
#2200000
14
b1 (
b1 *
b1 '
b1 )
b1 /
b1 Q
1$
#2250000
0$
#2300000
15
1F
1$
#2350000
0$
#2400000
05
b1 R
b1 T
1G
1$
#2450000
0$
#2500000
04
b0 (
b0 *
1$
#2550000
0$
#2600000
0F
1$
#2650000
0$
#2700000
0G
1$
#2750000
0$
#2800000
1$
#2850000
0$
#2900000
14
b1 (
b1 *
b10000 '
b10000 )
b10000 /
b10000 Q
1$
#2950000
0$
#3000000
15
1F
1$
#3050000
0$
#3100000
05
b10 ^
b10 ]
1G
b0 R
b1000000000001 =
b1000000000001 S
b1000000000001 V
1:
1$
#3150000
0$
#3200000
04
b0 (
b0 *
b10 ^
b10 ]
0:
1H
b1000000000001 J
b1000000000001 U
1$
#3250000
0$
#3300000
0F
1$
#3350000
0$
#3400000
0G
1$
#3450000
0$
#3500000
1$
#3550000
0$
#3600000
1$
#3650000
0$
#3700000
1$
#3750000
0$
#3800000
14
b1 (
b1 *
b10100 '
b10100 )
b10100 /
b10100 Q
1$
#3850000
0$
#3900000
15
1F
1$
#3950000
0$
#4000000
05
b1 R
b10100 T
1G
1$
#4050000
0$
#4100000
04
b0 (
b0 *
1$
#4150000
0$
#4200000
0F
1$
#4250000
0$
#4300000
0G
1$
#4350000
0$
#4400000
1$
#4450000
0$
#4500000
14
b1 (
b1 *
b1010010 '
b1010010 )
b1010010 /
b1010010 Q
1$
#4550000
0$
#4600000
15
1F
1$
#4650000
0$
#4700000
05
b10 ^
b10 ]
1G
b0 R
b101001000010100 =
b101001000010100 S
b101001000010100 V
1:
1$
#4750000
0$
#4800000
04
b0 (
b0 *
0:
1K
0H
1$
#4850000
0$
#4900000
b1 \
0K
0F
1$
#4950000
0$
#5000000
0G
b10 \
1$
#5050000
0$
#5100000
b1 Z
b100 W
1$
#5150000
0$
#5200000
b10 Z
1$
#5250000
0$
#5300000
b1 Y
b0 Z
b0 W
1$
#5350000
0$
#5400000
b1 Z
b1 W
1$
#5450000
0$
#5500000
b10 Z
1$
#5550000
0$
#5600000
b1 X
b0 Y
b0 Z
b0 W
1$
#5650000
0$
#5700000
b1 Z
1$
#5750000
0$
#5800000
b10 Z
b10 W
1$
#5850000
0$
#5900000
b1 Y
b0 Z
b0 W
1$
#5950000
0$
#6000000
b1 Z
1$
#6050000
0$
#6100000
b10 Z
b101 W
1$
#6150000
0$
#6200000
b11 \
b0 X
b0 Y
b0 Z
b0 W
1$
#6250000
0$
#6300000
18
b100 \
b101001000010100 ;
b101001000010100 N
b101001000010100 [
b10 a
b10 b
1$
#6350000
0$
#6400000
b101001000010100 O
1I
08
b0 \
1$
#6450000
0$
#6500000
b101001000010100 <
b101001000010100 P
b101001000010100 c
1$
#6550000
0$
#6600000
1$
#6650000
0$
#6700000
1$
#6750000
0$
#6800000
1$
#6850000
0$
#6900000
1$
#6950000
0$
#7000000
1$
#7050000
0$
#7100000
12
b10 (
b10 *
1$
#7150000
0$
#7200000
1d
13
1D
1$
#7250000
0$
#7300000
03
0d
1E
0I
1g
b101001000010100 f
09
1h
1$
#7350000
0$
#7400000
b10100 "
b10100 ,
b10100 >
b10100 i
19
b1 e
b1010010 f
0g
1$
#7450000
0$
#7500000
b10000 #
b10000 -
1C
b1 L
09
1$
#7550000
0$
#7600000
02
b0 (
b0 *
b10 L
1$
#7650000
0$
#7700000
b11 L
0D
1$
#7750000
0$
#7800000
0E
b100 L
1$
#7850000
0$
#7900000
b101 L
1$
#7950000
0$
#8000000
b0 #
b0 -
0C
b0 L
1$
#8050000
0$
#8100000
1$
#8150000
0$
#8200000
12
b10 (
b10 *
1$
#8250000
0$
#8300000
13
1D
1$
#8350000
0$
#8400000
03
b1010010 "
b1010010 ,
b1010010 >
b1010010 i
19
b10 e
b0 f
1E
1$
#8450000
0$
#8500000
b10000 #
b10000 -
1C
b1 L
09
b0 e
0h
1$
#8550000
0$
#8600000
b10 L
1$
#8650000
0$
#8700000
02
b0 (
b0 *
b11 L
1$
#8750000
0$
#8800000
0D
b100 L
1$
#8850000
0$
#8900000
b101 L
0E
1$
#8950000
0$
#9000000
b0 #
b0 -
0C
b0 L
1$
#9050000
0$
#9100000
1$
#9150000
0$
#9200000
1$
#9250000
0$
#9300000
1$
#9350000
0$
#9400000
1$
#9450000
0$
#9500000
1$
#9550000
0$
#9600000
1$
#9650000
0$
#9700000
1$
#9750000
0$
#9800000
1$
#9800001
b10 ^
b10 ]
b0 ;
b0 N
b0 [
b0 J
b0 U
b0 "
b0 ,
b0 >
b0 i
b0 T
b0 =
b0 S
b0 V
b0 O
b10 `
b10 _
0&
b0 '
b0 )
b0 /
b0 Q
#9850001
0$
#9900001
b10 `
b10 _
1$
#9950001
0$
#10000001
b10 `
b10 _
1$
#10050001
0$
#10100001
b10 `
b10 _
1$
#10150001
0$
#10200001
b10 `
b10 _
1$
#10250001
0$
#10300001
b10 `
b10 _
1$
#10350001
0$
#10400001
b10 `
b10 _
1$
#10450001
0$
#10500001
b10 `
b10 _
1$
#10550001
0$
#10600001
b10 `
b10 _
1$
#10650001
0$
#10700001
b10 `
b10 _
1$
#10750001
0$
#10800001
1&
b10 `
b10 _
1$
#10850001
0$
#10900001
b0 <
b0 P
b0 c
1$
#10950001
0$
#11000001
1$
#11050001
0$
#11100001
1$
#11150001
0$
#11200001
1$
#11250001
0$
#11300001
1$
#11350001
0$
#11400001
1$
#11450001
0$
#11500001
1$
#11550001
0$
#11600001
1$
#11650001
0$
#11700001
1$
#11750001
0$
#11800001
1$
#11850001
0$
#11900001
1$
#11950001
0$
#12000001
1$
#12050001
0$
#12100001
14
b1 (
b1 *
b10 '
b10 )
b10 /
b10 Q
1$
#12150001
0$
#12200001
15
1F
1$
#12250001
0$
#12300001
05
b1 R
b10 T
1G
1$
#12350001
0$
#12400001
04
b0 (
b0 *
1$
#12450001
0$
#12500001
0F
1$
#12550001
0$
#12600001
0G
1$
#12650001
0$
#12700001
1$
#12750001
0$
#12800001
14
b1 (
b1 *
b100000 '
b100000 )
b100000 /
b100000 Q
1$
#12850001
0$
#12900001
15
1F
1$
#12950001
0$
#13000001
05
b10 ^
b10 ]
1G
b0 R
b10000000000010 =
b10000000000010 S
b10000000000010 V
1:
1$
#13050001
0$
#13100001
04
b0 (
b0 *
b10 ^
b10 ]
0:
1H
b10000000000010 J
b10000000000010 U
1$
#13150001
0$
#13200001
0F
1$
#13250001
0$
#13300001
0G
1$
#13350001
0$
#13400001
1$
#13450001
0$
#13500001
1$
#13550001
0$
#13600001
1$
#13650001
0$
#13700001
14
b1 (
b1 *
b10100 '
b10100 )
b10100 /
b10100 Q
1$
#13750001
0$
#13800001
15
1F
1$
#13850001
0$
#13900001
05
b1 R
b10100 T
1G
1$
#13950001
0$
#14000001
04
b0 (
b0 *
1$
#14050001
0$
#14100001
0F
1$
#14150001
0$
#14200001
0G
1$
#14250001
0$
#14300001
1$
#14350001
0$
#14400001
14
b1 (
b1 *
b1010010 '
b1010010 )
b1010010 /
b1010010 Q
1$
#14450001
0$
#14500001
15
1F
1$
#14550001
0$
#14600001
05
b10 ^
b10 ]
1G
b0 R
b101001000010100 =
b101001000010100 S
b101001000010100 V
1:
1$
#14650001
0$
#14700001
04
b0 (
b0 *
0:
1K
0H
1$
#14750001
0$
#14800001
b1 \
0K
0F
1$
#14850001
0$
#14900001
0G
b10 \
1$
#14950001
0$
#15000001
b1 Z
b1000 W
1$
#15050001
0$
#15100001
b10 Z
1$
#15150001
0$
#15200001
b1 Y
b0 Z
b0 W
1$
#15250001
0$
#15300001
b1 Z
b10 W
1$
#15350001
0$
#15400001
b10 Z
1$
#15450001
0$
#15500001
b1 X
b0 Y
b0 Z
b0 W
1$
#15550001
0$
#15600001
b1 Z
1$
#15650001
0$
#15700001
b10 Z
b100 W
1$
#15750001
0$
#15800001
b1 Y
b0 Z
b0 W
1$
#15850001
0$
#15900001
b1 Z
1$
#15950001
0$
#16000001
b10 Z
b1010 W
1$
#16050001
0$
#16100001
b11 \
b0 X
b0 Y
b0 Z
b0 W
1$
#16150001
0$
#16200001
18
b100 \
b1010010000101000 ;
b1010010000101000 N
b1010010000101000 [
b10 b
b10 a
1$
#16250001
0$
#16300001
b1010010000101000 O
1I
08
b0 \
1$
#16350001
0$
#16400001
b1010010000101000 <
b1010010000101000 P
b1010010000101000 c
1$
#16450001
0$
#16500001
1$
#16550001
0$
#16600001
1$
#16650001
0$
#16700001
1$
#16750001
0$
#16800001
1$
#16850001
0$
#16900001
1$
#16950001
0$
#17000001
12
b10 (
b10 *
1$
#17050001
0$
#17100001
1d
13
1D
1$
#17150001
0$
#17200001
03
0d
1E
0I
1g
b1010010000101000 f
09
1h
1$
#17250001
0$
#17300001
b101000 "
b101000 ,
b101000 >
b101000 i
19
b1 e
b10100100 f
0g
1$
#17350001
0$
#17400001
b10000 #
b10000 -
1C
b1 L
09
1$
#17450001
0$
#17500001
02
b0 (
b0 *
b10 L
1$
#17550001
0$
#17600001
b11 L
0D
1$
#17650001
0$
#17700001
0E
b100 L
1$
#17750001
0$
#17800001
b101 L
1$
#17850001
0$
#17900001
b0 #
b0 -
0C
b0 L
1$
#17950001
0$
#18000001
1$
#18050001
0$
#18100001
12
b10 (
b10 *
1$
#18150001
0$
#18200001
13
1D
1$
#18250001
0$
#18300001
03
b10100100 "
b10100100 ,
b10100100 >
b10100100 i
19
b10 e
b0 f
1E
1$
#18350001
0$
#18400001
b10000 #
b10000 -
1C
b1 L
09
b0 e
0h
1$
#18450001
0$
#18500001
b10 L
1$
#18550001
0$
#18600001
02
b0 (
b0 *
b11 L
1$
#18650001
0$
#18700001
0D
b100 L
1$
#18750001
0$
#18800001
b101 L
0E
1$
#18850001
0$
#18900001
b0 #
b0 -
0C
b0 L
1$
#18950001
0$
#19000001
1$
#19050001
0$
#19100001
1$
#19150001
0$
#19200001
1$
#19250001
0$
#19300001
1$
#19350001
0$
#19400001
1$
#19450001
0$
#19500001
1$
#19550001
0$
#19600001
1$
#19650001
0$
#19700001
1$
#19700002
b10 ^
b10 ]
b0 ;
b0 N
b0 [
b0 J
b0 U
b0 "
b0 ,
b0 >
b0 i
b0 T
b0 =
b0 S
b0 V
b0 O
b10 `
b10 _
0&
b0 '
b0 )
b0 /
b0 Q
#19750002
0$
#19800002
b10 `
b10 _
1$
#19850002
0$
#19900002
b10 `
b10 _
1$
#19950002
0$
#20000002
b10 `
b10 _
1$
#20050002
0$
#20100002
b10 `
b10 _
1$
#20150002
0$
#20200002
b10 `
b10 _
1$
#20250002
0$
#20300002
b10 `
b10 _
1$
#20350002
0$
#20400002
b10 `
b10 _
1$
#20450002
0$
#20500002
b10 `
b10 _
1$
#20550002
0$
#20600002
b10 `
b10 _
1$
#20650002
0$
#20700002
1&
b10 `
b10 _
1$
#20750002
0$
#20800002
b0 <
b0 P
b0 c
1$
#20850002
0$
#20900002
1$
#20950002
0$
#21000002
1$
#21050002
0$
#21100002
1$
#21150002
0$
#21200002
1$
#21250002
0$
#21300002
1$
#21350002
0$
#21400002
1$
#21450002
0$
#21500002
1$
#21550002
0$
#21600002
1$
#21650002
0$
#21700002
17
b1000 (
b1000 *
1$
#21750002
0$
#21800002
10
1?
1$
#21850002
0$
#21900002
00
1M
1@
1$
#21950002
0$
#22000002
1$
#22050002
0$
#22100002
1$
#22150002
0$
#22200002
07
b0 (
b0 *
1$
#22250002
0$
#22300002
0?
1$
#22350002
0$
#22400002
0@
1$
#22450002
0$
#22500002
1$
#22550002
0$
#22600002
14
b1 (
b1 *
b1 '
b1 )
b1 /
b1 Q
1$
#22650002
0$
#22700002
15
1F
1$
#22750002
0$
#22800002
05
b1 R
b1 T
1G
1$
#22850002
0$
#22900002
04
b0 (
b0 *
1$
#22950002
0$
#23000002
0F
1$
#23050002
0$
#23100002
0G
1$
#23150002
0$
#23200002
1$
#23250002
0$
#23300002
14
b1 (
b1 *
b10000 '
b10000 )
b10000 /
b10000 Q
1$
#23350002
0$
#23400002
15
1F
1$
#23450002
0$
#23500002
05
b10 ^
b10 ]
1G
b0 R
b1000000000001 =
b1000000000001 S
b1000000000001 V
1:
1$
#23550002
0$
#23600002
04
b0 (
b0 *
b10 ^
b10 ]
0:
1H
b1000000000001 J
b1000000000001 U
1$
#23650002
0$
#23700002
0F
1$
#23750002
0$
#23800002
0G
1$
#23850002
0$
#23900002
1$
#23950002
0$
#24000002
1$
#24050002
0$
#24100002
1$
#24150002
0$
#24200002
14
b1 (
b1 *
b10100 '
b10100 )
b10100 /
b10100 Q
1$
#24250002
0$
#24300002
15
1F
1$
#24350002
0$
#24400002
05
b1 R
b10100 T
1G
1$
#24450002
0$
#24500002
04
b0 (
b0 *
1$
#24550002
0$
#24600002
0F
1$
#24650002
0$
#24700002
0G
1$
#24750002
0$
#24800002
1$
#24850002
0$
#24900002
14
b1 (
b1 *
b1010010 '
b1010010 )
b1010010 /
b1010010 Q
1$
#24950002
0$
#25000002
15
1F
1$
#25050002
0$
#25100002
05
b10 ^
b10 ]
1G
b0 R
b101001000010100 =
b101001000010100 S
b101001000010100 V
1:
1$
#25150002
0$
#25200002
04
b0 (
b0 *
0:
1K
0H
1$
#25250002
0$
#25300002
b1 \
0K
0F
1$
#25350002
0$
#25400002
0G
b10 \
1$
#25450002
0$
#25500002
b1 Z
b100 W
1$
#25550002
0$
#25600002
b10 Z
1$
#25650002
0$
#25700002
b1 Y
b0 Z
b0 W
1$
#25750002
0$
#25800002
b1 Z
b1 W
1$
#25850002
0$
#25900002
b10 Z
1$
#25950002
0$
#26000002
b1 X
b0 Y
b0 Z
b0 W
1$
#26050002
0$
#26100002
b1 Z
1$
#26150002
0$
#26200002
b10 Z
b10 W
1$
#26250002
0$
#26300002
b1 Y
b0 Z
b0 W
1$
#26350002
0$
#26400002
b1 Z
1$
#26450002
0$
#26500002
b10 Z
b101 W
1$
#26550002
0$
#26600002
b11 \
b0 X
b0 Y
b0 Z
b0 W
1$
#26650002
0$
#26700002
18
b100 \
b101001000010100 ;
b101001000010100 N
b101001000010100 [
b10 b
b10 a
1$
#26750002
0$
#26800002
b101001000010100 O
1I
08
b0 \
1$
#26850002
0$
#26900002
b101001000010100 <
b101001000010100 P
b101001000010100 c
1$
#26950002
0$
#27000002
1$
#27050002
0$
#27100002
1$
#27150002
0$
#27200002
1$
#27250002
0$
#27300002
1$
#27350002
0$
#27400002
1$
#27450002
0$
#27500002
1$
#27550002
0$
#27600002
1$
#27650002
0$
#27700002
1$
#27750002
0$
#27800002
14
b1 (
b1 *
b10 '
b10 )
b10 /
b10 Q
1$
#27850002
0$
#27900002
15
1F
1$
#27950002
0$
#28000002
05
b1 R
b10 T
1G
1$
#28050002
0$
#28100002
04
b0 (
b0 *
1$
#28150002
0$
#28200002
0F
1$
#28250002
0$
#28300002
0G
1$
#28350002
0$
#28400002
1$
#28450002
0$
#28500002
14
b1 (
b1 *
b100000 '
b100000 )
b100000 /
b100000 Q
1$
#28550002
0$
#28600002
15
1F
1$
#28650002
0$
#28700002
05
b10 ^
b10 ]
1G
b0 R
b10000000000010 =
b10000000000010 S
b10000000000010 V
1:
1$
#28750002
0$
#28800002
04
b0 (
b0 *
b10 ^
b10 ]
0:
1H
b10000000000010 J
b10000000000010 U
1$
#28850002
0$
#28900002
0F
1$
#28950002
0$
#29000002
0G
1$
#29050002
0$
#29100002
1$
#29150002
0$
#29200002
1$
#29250002
0$
#29300002
1$
#29350002
0$
#29400002
14
b1 (
b1 *
b10100 '
b10100 )
b10100 /
b10100 Q
1$
#29450002
0$
#29500002
15
1F
1$
#29550002
0$
#29600002
05
b1 R
b10100 T
1G
1$
#29650002
0$
#29700002
04
b0 (
b0 *
1$
#29750002
0$
#29800002
0F
1$
#29850002
0$
#29900002
0G
1$
#29950002
0$
#30000002
1$
#30050002
0$
#30100002
14
b1 (
b1 *
b1010010 '
b1010010 )
b1010010 /
b1010010 Q
1$
#30150002
0$
#30200002
15
1F
1$
#30250002
0$
#30300002
05
b10 ^
b10 ]
1G
b0 R
b101001000010100 =
b101001000010100 S
b101001000010100 V
1:
1$
#30350002
0$
#30400002
04
b0 (
b0 *
0:
1K
0H
1$
#30450002
0$
#30500002
b1 \
0K
0F
1$
#30550002
0$
#30600002
0G
b10 \
1$
#30650002
0$
#30700002
b1 Z
b1000 W
1$
#30750002
0$
#30800002
b10 Z
1$
#30850002
0$
#30900002
b1 Y
b0 Z
b0 W
1$
#30950002
0$
#31000002
b1 Z
b10 W
1$
#31050002
0$
#31100002
b10 Z
1$
#31150002
0$
#31200002
b1 X
b0 Y
b0 Z
b0 W
1$
#31250002
0$
#31300002
b1 Z
1$
#31350002
0$
#31400002
b10 Z
b100 W
1$
#31450002
0$
#31500002
b1 Y
b0 Z
b0 W
1$
#31550002
0$
#31600002
b1 Z
1$
#31650002
0$
#31700002
b10 Z
b1010 W
1$
#31750002
0$
#31800002
b11 \
b0 X
b0 Y
b0 Z
b0 W
1$
#31850002
0$
#31900002
18
b100 \
b1010010000101000 ;
b1010010000101000 N
b1010010000101000 [
b10 b
b10 a
1$
#31950002
0$
#32000002
b1111011000111100 O
08
b0 \
1$
#32050002
0$
#32100002
b1111011000111100 <
b1111011000111100 P
b1111011000111100 c
1$
#32150002
0$
#32200002
1$
#32250002
0$
#32300002
1$
#32350002
0$
#32400002
1$
#32450002
0$
#32500002
1$
#32550002
0$
#32600002
1$
#32650002
0$
#32700002
12
b10 (
b10 *
1$
#32750002
0$
#32800002
1d
13
1D
1$
#32850002
0$
#32900002
03
0d
1E
0I
1g
b1111011000111100 f
09
1h
1$
#32950002
0$
#33000002
b111100 "
b111100 ,
b111100 >
b111100 i
19
b1 e
b11110110 f
0g
1$
#33050002
0$
#33100002
b10000 #
b10000 -
1C
b1 L
09
1$
#33150002
0$
#33200002
02
b0 (
b0 *
b10 L
1$
#33250002
0$
#33300002
b11 L
0D
1$
#33350002
0$
#33400002
0E
b100 L
1$
#33450002
0$
#33500002
b101 L
1$
#33550002
0$
#33600002
b0 #
b0 -
0C
b0 L
1$
#33650002
0$
#33700002
1$
#33750002
0$
#33800002
12
b10 (
b10 *
1$
#33850002
0$
#33900002
13
1D
1$
#33950002
0$
#34000002
03
b11110110 "
b11110110 ,
b11110110 >
b11110110 i
19
b10 e
b0 f
1E
1$
#34050002
0$
#34100002
b10000 #
b10000 -
1C
b1 L
09
b0 e
0h
1$
#34150002
0$
#34200002
b10 L
1$
#34250002
0$
#34300002
02
b0 (
b0 *
b11 L
1$
#34350002
0$
#34400002
0D
b100 L
1$
#34450002
0$
#34500002
b101 L
0E
1$
#34550002
0$
#34600002
b0 #
b0 -
0C
b0 L
1$
#34650002
0$
#34700002
1$
#34750002
0$
#34800002
1$
#34850002
0$
#34900002
1$
#34950002
0$
#35000002
1$
#35050002
0$
#35100002
1$
#35150002
0$
#35200002
1$
#35250002
0$
#35300002
1$
#35350002
0$
#35400002
1$
#35400003
b10 ^
b10 ]
b0 ;
b0 N
b0 [
0M
b0 J
b0 U
b0 "
b0 ,
b0 >
b0 i
b0 T
b0 =
b0 S
b0 V
b0 O
b10 `
b10 _
0&
b0 '
b0 )
b0 /
b0 Q
#35450003
0$
#35500003
b10 `
b10 _
1$
#35550003
0$
#35600003
b10 `
b10 _
1$
#35650003
0$
#35700003
b10 `
b10 _
1$
#35750003
0$
#35800003
b10 `
b10 _
1$
#35850003
0$
#35900003
b10 `
b10 _
1$
#35950003
0$
#36000003
b10 `
b10 _
1$
#36050003
0$
#36100003
b10 `
b10 _
1$
#36150003
0$
#36200003
b10 `
b10 _
1$
#36250003
0$
#36300003
b10 `
b10 _
1$
#36350003
0$
#36400003
1&
b10 `
b10 _
1$
#36450003
0$
#36500003
b0 <
b0 P
b0 c
1$
#36550003
0$
#36600003
1$
#36650003
0$
#36700003
1$
#36750003
0$
#36800003
1$
#36850003
0$
#36900003
1$
#36950003
0$
#37000003
1$
#37050003
0$
#37100003
1$
#37150003
0$
#37200003
1$
#37250003
0$
#37300003
1$
#37350003
0$
#37400003
1$
#37450003
0$
#37500003
1$
#37550003
0$
#37600003
17
b1000 (
b1000 *
1$
#37650003
0$
#37700003
10
1?
1$
#37750003
0$
#37800003
00
1M
1@
1$
#37850003
0$
#37900003
1$
#37950003
0$
#38000003
1$
#38050003
0$
#38100003
07
b0 (
b0 *
1$
#38150003
0$
#38200003
0?
1$
#38250003
0$
#38300003
14
b1 (
b1 *
b1 '
b1 )
b1 /
b1 Q
0@
1$
#38350003
0$
#38400003
15
1F
1$
#38450003
0$
#38500003
05
b1 R
b1 T
1G
1$
#38550003
0$
#38600003
04
b0 (
b0 *
1$
#38650003
0$
#38700003
0F
1$
#38750003
0$
#38800003
0G
1$
#38850003
0$
#38900003
1$
#38950003
0$
#39000003
14
b1 (
b1 *
b10000 '
b10000 )
b10000 /
b10000 Q
1$
#39050003
0$
#39100003
15
1F
1$
#39150003
0$
#39200003
05
b10 ^
b10 ]
1G
b0 R
b1000000000001 =
b1000000000001 S
b1000000000001 V
1:
1$
#39250003
0$
#39300003
04
b0 (
b0 *
b10 ^
b10 ]
0:
1H
b1000000000001 J
b1000000000001 U
1$
#39350003
0$
#39400003
0F
1$
#39450003
0$
#39500003
0G
1$
#39550003
0$
#39600003
1$
#39650003
0$
#39700003
1$
#39750003
0$
#39800003
1$
#39850003
0$
#39900003
14
b1 (
b1 *
b10100 '
b10100 )
b10100 /
b10100 Q
1$
#39950003
0$
#40000003
15
1F
1$
#40050003
0$
#40100003
05
b1 R
b10100 T
1G
1$
#40150003
0$
#40200003
04
b0 (
b0 *
1$
#40250003
0$
#40300003
0F
1$
#40350003
0$
#40400003
0G
1$
#40450003
0$
#40500003
1$
#40550003
0$
#40600003
14
b1 (
b1 *
b1010010 '
b1010010 )
b1010010 /
b1010010 Q
1$
#40650003
0$
#40700003
15
1F
1$
#40750003
0$
#40800003
05
b10 ^
b10 ]
1G
b0 R
b101001000010100 =
b101001000010100 S
b101001000010100 V
1:
1$
#40850003
0$
#40900003
04
b0 (
b0 *
0:
1K
0H
1$
#40950003
0$
#41000003
b1 \
0K
0F
1$
#41050003
0$
#41100003
0G
b10 \
1$
#41150003
0$
#41200003
b1 Z
b100 W
1$
#41250003
0$
#41300003
b10 Z
1$
#41350003
0$
#41400003
b1 Y
b0 Z
b0 W
1$
#41450003
0$
#41500003
b1 Z
b1 W
1$
#41550003
0$
#41600003
b10 Z
1$
#41650003
0$
#41700003
b1 X
b0 Y
b0 Z
b0 W
1$
#41750003
0$
#41800003
b1 Z
1$
#41850003
0$
#41900003
b10 Z
b10 W
1$
#41950003
0$
#42000003
b1 Y
b0 Z
b0 W
1$
#42050003
0$
#42100003
b1 Z
1$
#42150003
0$
#42200003
b10 Z
b101 W
1$
#42250003
0$
#42300003
b11 \
b0 X
b0 Y
b0 Z
b0 W
1$
#42350003
0$
#42400003
18
b100 \
b101001000010100 ;
b101001000010100 N
b101001000010100 [
b10 b
b10 a
1$
#42450003
0$
#42500003
b101001000010100 O
1I
08
b0 \
1$
#42550003
0$
#42600003
b101001000010100 <
b101001000010100 P
b101001000010100 c
1$
#42650003
0$
#42700003
1$
#42750003
0$
#42800003
1$
#42850003
0$
#42900003
1$
#42950003
0$
#43000003
1$
#43050003
0$
#43100003
1$
#43150003
0$
#43200003
1$
#43250003
0$
#43300003
1$
#43350003
0$
#43400003
1$
#43450003
0$
#43500003
14
b1 (
b1 *
b10 '
b10 )
b10 /
b10 Q
1$
#43550003
0$
#43600003
15
1F
1$
#43650003
0$
#43700003
05
b1 R
b10 T
1G
1$
#43750003
0$
#43800003
04
b0 (
b0 *
1$
#43850003
0$
#43900003
0F
1$
#43950003
0$
#44000003
0G
1$
#44050003
0$
#44100003
1$
#44150003
0$
#44200003
14
b1 (
b1 *
b100000 '
b100000 )
b100000 /
b100000 Q
1$
#44250003
0$
#44300003
15
1F
1$
#44350003
0$
#44400003
05
b10 ^
b10 ]
1G
b0 R
b10000000000010 =
b10000000000010 S
b10000000000010 V
1:
1$
#44450003
0$
#44500003
04
b0 (
b0 *
b10 ^
b10 ]
0:
1H
b10000000000010 J
b10000000000010 U
1$
#44550003
0$
#44600003
0F
1$
#44650003
0$
