test/tb.vcd
$date
	Fri Sep  5 23:09:36 2025
$end
$version
	Icarus Verilog
$end
$timescale
	1ps
$end
$scope module tb $end
$var wire 8 ! uio_oe [7:0] $end
$var wire 8 " uo_out [7:0] $end
$var wire 8 # uio_out [7:0] $end
$var wire 8 $ uio_in [7:0] $end
$var reg 1 % clk $end
$var reg 1 & ena $end
$var reg 1 ' rst_n $end
$var reg 8 ( ui_in [7:0] $end
$scope module user_project $end
$var wire 1 % clk $end
$var wire 1 & ena $end
$var wire 1 ' rst_n $end
$var wire 8 ) ui_in [7:0] $end
$var wire 8 * uio_oe [7:0] $end
$var wire 8 + uo_out [7:0] $end
$var wire 8 , uio_in [7:0] $end
$var reg 1 - _unused $end
$var reg 8 . uio_out [7:0] $end
$scope module core $end
$var wire 8 / Datos_in [7:0] $end
$var wire 1 0 Ena_accu_Ena $end
$var wire 1 1 Ena_read $end
$var wire 1 2 Ena_read_Ena $end
$var wire 1 3 Ena_write $end
$var wire 1 4 Ena_write_Ena $end
$var wire 1 5 clear $end
$var wire 1 % clk $end
$var wire 1 6 enable_accu $end
$var wire 1 ' rst $end
$var wire 1 7 flat_64_comple $end
$var wire 64 8 dato_in_64_bits_resultado [63:0] $end
$var wire 64 9 dato_in_64_bits_output [63:0] $end
$var wire 64 : dato_in_64_bits [63:0] $end
$var wire 1 ; Ena_out $end
$var wire 8 < Datos_out [7:0] $end
$var reg 1 = Ena_accu_retradado $end
$var reg 1 > Ena_accu_retradado_re $end
$var reg 1 ? Ena_read_retradado $end
$var reg 1 @ Ena_read_retradado_re $end
$var reg 1 A Ena_write_retradado $end
$var reg 1 B Ena_write_retradado_re $end
$var reg 1 C conta_palabras $end
$var reg 64 D dato_in_64_bits_A [63:0] $end
$scope module accumulate_unit_u $end
$var wire 1 5 clear $end
$var wire 1 % clock $end
$var wire 1 0 enable $end
$var wire 1 ' reset $end
$var wire 64 E result [63:0] $end
$var wire 64 F out [63:0] $end
$var reg 64 G accumulator [63:0] $end
$upscope $end
$scope module four_palabras_Unit $end
$var wire 1 % clk $end
$var wire 8 H dato [7:0] $end
$var wire 1 ' rst $end
$var wire 1 4 rx_flat $end
$var reg 3 I con [2:0] $end
$var reg 64 J data_comple [63:0] $end
$var reg 1 7 flat_comple $end
$var reg 64 K var_data_comple [63:0] $end
$scope begin $ivl_for_loop0 $end
$var integer 32 L j [31:0] $end
$upscope $end
$scope begin $ivl_for_loop1 $end
$var integer 32 M j [31:0] $end
$upscope $end
$scope begin $ivl_for_loop2 $end
$var integer 32 N i [31:0] $end
$upscope $end
$upscope $end
$scope module multiply_unit_u $end
$var wire 1 % clk $end
$var wire 64 O matrixA [63:0] $end
$var wire 64 P matrixB [63:0] $end
$var wire 1 ' rst $end
$var reg 64 Q result [63:0] $end
$scope begin $ivl_for_loop3 $end
$var integer 32 R i [31:0] $end
$scope begin $ivl_for_loop4 $end
$var integer 32 S j [31:0] $end
$scope begin $ivl_for_loop5 $end
$var integer 32 T k [31:0] $end
$upscope $end
$upscope $end
$upscope $end
$upscope $end
$scope module uart_tx_4in4_u $end
$var wire 1 % clk $end
$var wire 64 U input_dato [63:0] $end
$var wire 1 2 next_uart $end
$var wire 1 ' rst $end
$var wire 1 V start $end
$var reg 4 W Con [3:0] $end
$var reg 64 X Dato [63:0] $end
$var reg 1 Y First $end
$var reg 1 Z Flat $end
$var reg 8 [ Output_dato [7:0] $end
$var reg 1 ; flat_out $end
$upscope $end
$upscope $end
$upscope $end
$upscope $end
$enddefinitions $end
#0
$dumpvars
b0 [
0Z
0Y
b0 X
b0 W
0V
b0 U
b0 T
b0 S
b0 R
bx Q
b0 P
b0 O
b0 N
b111 M
b111 L
b0 K
b0 J
b0 I
b0 H
b0 G
b0 F
bx E
b0 D
0C
0B
0A
0@
0?
0>
0=
b0 <
0;
b0 :
b0 9
bx 8
07
06
05
04
03
02
01
00
b0 /
bx .
0-
b0 ,
b0 +
b10000 *
b0 )
b0 (
0'
0&
1%
b0 $
bx #
b0 "
b10000 !
$end
#50000
0%
#100000
b111 M
1%
#150000
0%
#200000
b111 M
1%
#250000
0%
#300000
b111 M
1%
#350000
0%
#400000
b111 M
1%
#450000
0%
#500000
b111 M
1%
#550000
0%
#600000
b111 M
1%
#650000
0%
#700000
b111 M
1%
#750000
0%
#800000
b111 M
1%
#850000
0%
#900000
1'
b111 M
1%
#950000
0%
#1000000
13
b1 $
b1 ,
b10111 (
b10111 )
b10111 /
b10111 H
bx 9
bx F
bx U
b0 8
b0 E
b0 Q
bx G
b100 R
b100 S
b100 T
1%
#1050000
0%
#1100000
14
b0 9
b0 F
b0 U
1A
b0 G
b100 T
b100 S
b100 R
1%
#1150000
0%
#1200000
04
1B
b1 I
b100 T
b100 S
b100 R
1%
#1250000
0%
#1300000
03
b0 $
b0 ,
b100 T
b100 S
b100 R
1%
#1350000
0%
#1400000
0A
b100 T
b100 S
b100 R
1%
#1450000
0%
#1500000
0B
b100 T
b100 S
b100 R
1%
#1550000
0%
#1600000
b100 T
b100 S
b100 R
1%
#1650000
0%
#1700000
b100 T
b100 S
b100 R
1%
#1750000
0%
#1800000
13
b1 $
b1 ,
b110110 (
b110110 )
b110110 /
b110110 H
b100 T
b100 S
b100 R
1%
#1850000
0%
#1900000
14
1A
b100 T
b100 S
b100 R
1%
#1950000
0%
#2000000
04
1B
b10 I
b100 T
b100 S
b100 R
1%
#2050000
0%
#2100000
03
b0 $
b0 ,
b100 T
b100 S
b100 R
1%
#2150000
0%
#2200000
0A
b100 T
b100 S
b100 R
1%
#2250000
0%
#2300000
0B
b100 T
b100 S
b100 R
1%
#2350000
0%
#2400000
b100 T
b100 S
b100 R
1%
#2450000
0%
#2500000
b100 T
b100 S
b100 R
1%
#2550000
0%
#2600000
13
b1 $
b1 ,
b1111011 (
b1111011 )
b1111011 /
b1111011 H
b100 T
b100 S
b100 R
1%
#2650000
0%
#2700000
14
1A
b100 T
b100 S
b100 R
1%
#2750000
0%
#2800000
04
1B
b11 I
b100 T
b100 S
b100 R
1%
#2850000
0%
#2900000
03
b0 $
b0 ,
b100 T
b100 S
b100 R
1%
#2950000
0%
#3000000
0A
b100 T
b100 S
b100 R
1%
#3050000
0%
#3100000
0B
b100 T
b100 S
b100 R
1%
#3150000
0%
#3200000
b100 T
b100 S
b100 R
1%
#3250000
0%
#3300000
b100 T
b100 S
b100 R
1%
#3350000
0%
#3400000
13
b1 $
b1 ,
b11111011 (
b11111011 )
b11111011 /
b11111011 H
b100 T
b100 S
b100 R
1%
#3450000
0%
#3500000
14
1A
b100 T
b100 S
b100 R
1%
#3550000
0%
#3600000
04
1B
b100 I
b100 T
b100 S
b100 R
1%
#3650000
0%
#3700000
03
b0 $
b0 ,
b100 T
b100 S
b100 R
1%
#3750000
0%
#3800000
0A
b100 T
b100 S
b100 R
1%
#3850000
0%
#3900000
0B
b100 T
b100 S
b100 R
1%
#3950000
0%
#4000000
b100 T
b100 S
b100 R
1%
#4050000
0%
#4100000
b100 T
b100 S
b100 R
1%
#4150000
0%
#4200000
13
b1 $
b1 ,
b1000 (
b1000 )
b1000 /
b1000 H
b100 T
b100 S
b100 R
1%
#4250000
0%
#4300000
14
1A
b100 T
b100 S
b100 R
1%
#4350000
0%
#4400000
04
1B
b101 I
b100 T
b100 S
b100 R
1%
#4450000
0%
#4500000
03
b0 $
b0 ,
b100 T
b100 S
b100 R
1%
#4550000
0%
#4600000
0A
b100 T
b100 S
b100 R
1%
#4650000
0%
#4700000
0B
b100 T
b100 S
b100 R
1%
#4750000
0%
#4800000
b100 T
b100 S
b100 R
1%
#4850000
0%
#4900000
b100 T
b100 S
b100 R
1%
#4950000
0%
#5000000
13
b1 $
b1 ,
b1100101 (
b1100101 )
b1100101 /
b1100101 H
b100 T
b100 S
b100 R
1%
#5050000
0%
#5100000
14
1A
b100 T
b100 S
b100 R
1%
#5150000
0%
#5200000
04
1B
b110 I
b100 T
b100 S
b100 R
1%
#5250000
0%
#5300000
03
b0 $
b0 ,
b100 T
b100 S
b100 R
1%
#5350000
0%
#5400000
0A
b100 T
b100 S
b100 R
1%
#5450000
0%
#5500000
0B
b100 T
b100 S
b100 R
1%
#5550000
0%
#5600000
b100 T
b100 S
b100 R
1%
#5650000
0%
#5700000
b100 T
b100 S
b100 R
1%
#5750000
0%
#5800000
13
b1 $
b1 ,
b11011101 (
b11011101 )
b11011101 /
b11011101 H
b100 T
b100 S
b100 R
1%
#5850000
0%
#5900000
14
1A
b100 T
b100 S
b100 R
1%
#5950000
0%
#6000000
04
1B
b111 I
b100 T
b100 S
b100 R
1%
#6050000
0%
#6100000
03
b0 $
b0 ,
b100 T
b100 S
b100 R
1%
#6150000
0%
#6200000
0A
b100 T
b100 S
b100 R
1%
#6250000
0%
#6300000
0B
b100 T
b100 S
b100 R
1%
#6350000
0%
#6400000
b100 T
b100 S
b100 R
1%
#6450000
0%
#6500000
b100 T
b100 S
b100 R
1%
#6550000
0%
#6600000
13
b1 $
b1 ,
b10010001 (
b10010001 )
b10010001 /
b10010001 H
b100 T
b100 S
b100 R
1%
#6650000
0%
#6700000
14
1A
b100 T
b100 S
b100 R
1%
#6750000
0%
#6800000
04
b0 I
b1001000111011101011001010000100011111011011110110011011000010111 :
b1001000111011101011001010000100011111011011110110011011000010111 J
b1001000111011101011001010000100011111011011110110011011000010111 P
1B
17
b100 T
b100 S
b100 R
b111 N
b1001000111011101011001010000100011111011011110110011011000010111 K
1%
#6850000
0%
#6900000
03
b0 $
b0 ,
1C
b1001000111011101011001010000100011111011011110110011011000010111 D
b1001000111011101011001010000100011111011011110110011011000010111 O
07
b100 T
b100 S
b100 R
1%
#6950000
0%
#7000000
0A
b100 T
b100 S
b100 R
1%
#7050000
0%
#7100000
0B
b100 T
b100 S
b100 R
1%
#7150000
0%
#7200000
b1101000110100010001011011001100110011101000111010101101001010001 8
b1101000110100010001011011001100110011101000111010101101001010001 E
b1101000110100010001011011001100110011101000111010101101001010001 Q
b100 T
b100 S
b100 R
1%
#7250000
0%
#7300000
b1101000110100010001011011001100110011101000111010101101001010001 9
b1101000110100010001011011001100110011101000111010101101001010001 F
b1101000110100010001011011001100110011101000111010101101001010001 U
b1010001001000100010010100010001000101010001010101010010010100010 8
b1010001001000100010010100010001000101010001010101010010010100010 E
b1010001001000100010010100010001000101010001010101010010010100010 Q
b1101000110100010001011011001100110011101000111010101101001010001 G
b100 T
b100 S
b100 R
1%
#7350000
0%
#7400000
b1010001001000100010010100010001000101010001010101010010010100010 9
b1010001001000100010010100010001000101010001010101010010010100010 F
b1010001001000100010010100010001000101010001010101010010010100010 U
b111001111100110011001111011101110110111001101111111111011110011 8
b111001111100110011001111011101110110111001101111111111011110011 E
b111001111100110011001111011101110110111001101111111111011110011 Q
b1010001001000100010010100010001000101010001010101010010010100010 G
b100 T
b100 S
b100 R
1%
#7450000
0%
#7500000
b111001111100110011001111011101110110111001101111111111011110011 9
b111001111100110011001111011101110110111001101111111111011110011 F
b111001111100110011001111011101110110111001101111111111011110011 U
b100010010001000100001000100010001000100010001000100100001000100 8
b100010010001000100001000100010001000100010001000100100001000100 E
b100010010001000100001000100010001000100010001000100100001000100 Q
b111001111100110011001111011101110110111001101111111111011110011 G
b100 T
b100 S
b100 R
1%
#7550000
0%
#7600000
b100010010001000100001000100010001000100010001000100100001000100 9
b100010010001000100001000100010001000100010001000100100001000100 F
b100010010001000100001000100010001000100010001000100100001000100 U
b1010100101010101000011101110111010001010100011001001010010101 8
b1010100101010101000011101110111010001010100011001001010010101 E
b1010100101010101000011101110111010001010100011001001010010101 Q
b100010010001000100001000100010001000100010001000100100001000100 G
b100 T
b100 S
b100 R
1%
#7650000
0%
#7700000
b1010100101010101000011101110111010001010100011001001010010101 9
b1010100101010101000011101110111010001010100011001001010010101 F
b1010100101010101000011101110111010001010100011001001010010101 U
b1110011011001100110011100110011001101110011011101110110011100110 8
b1110011011001100110011100110011001101110011011101110110011100110 E
b1110011011001100110011100110011001101110011011101110110011100110 Q
b1010100101010101000011101110111010001010100011001001010010101 G
b100 T
b100 S
b100 R
1%
#7750000
0%
#7800000
b1110011011001100110011100110011001101110011011101110110011100110 9
b1110011011001100110011100110011001101110011011101110110011100110 F
b1110011011001100110011100110011001101110011011101110110011100110 U
b1011011101101110111010111111111111111011011110110011011000110111 8
b1011011101101110111010111111111111111011011110110011011000110111 E
b1011011101101110111010111111111111111011011110110011011000110111 Q
b1110011011001100110011100110011001101110011011101110110011100110 G
b100 T
b100 S
b100 R
1%
#7850000
0%
#7900000
b1011011101101110111010111111111111111011011110110011011000110111 9
b1011011101101110111010111111111111111011011110110011011000110111 F
b1011011101101110111010111111111111111011011110110011011000110111 U
b1000100000000000000010001000100010001000100010001000000010001000 8
b1000100000000000000010001000100010001000100010001000000010001000 E
b1000100000000000000010001000100010001000100010001000000010001000 Q
b1011011101101110111010111111111111111011011110110011011000110111 G
b100 T
b100 S
b100 R
1%
#7950000
0%
#8000000
b1000100000000000000010001000100010001000100010001000000010001000 9
b1000100000000000000010001000100010001000100010001000000010001000 F
b1000100000000000000010001000100010001000100010001000000010001000 U
b101100110100010001001010001000100010101100101011101101011011001 8
b101100110100010001001010001000100010101100101011101101011011001 E
b101100110100010001001010001000100010101100101011101101011011001 Q
b1000100000000000000010001000100010001000100010001000000010001000 G
b100 T
b100 S
b100 R
1%
#8050000
0%
#8100000
b101100110100010001001010001000100010101100101011101101011011001 9
b101100110100010001001010001000100010101100101011101101011011001 F
b101100110100010001001010001000100010101100101011101101011011001 U
b10101001000100010000101010101010100010101000100010010000101010 8
b10101001000100010000101010101010100010101000100010010000101010 E
b10101001000100010000101010101010100010101000100010010000101010 Q
b101100110100010001001010001000100010101100101011101101011011001 G
b100 T
b100 S
b100 R
1%
#8150000
0%
#8200000
b10101001000100010000101010101010100010101000100010010000101010 9
b10101001000100010000101010101010100010101000100010010000101010 F
b10101001000100010000101010101010100010101000100010010000101010 U
b1111101111100110011011110011001100111111101111110111111001111011 8
b1111101111100110011011110011001100111111101111110111111001111011 E
b1111101111100110011011110011001100111111101111110111111001111011 Q
b10101001000100010000101010101010100010101000100010010000101010 G
b100 T
b100 S
b100 R
1%
#8250000
0%
#8300000
b1111101111100110011011110011001100111111101111110111111001111011 9
b1111101111100110011011110011001100111111101111110111111001111011 F
b1111101111100110011011110011001100111111101111110111111001111011 U
b1100110010001000100011001100110011001100110011001100100011001100 8
b1100110010001000100011001100110011001100110011001100100011001100 E
b1100110010001000100011001100110011001100110011001100100011001100 Q
b1111101111100110011011110011001100111111101111110111111001111011 G
b100 T
b100 S
b100 R
1%
#8350000
0%
#8400000
13
b1 $
b1 ,
b1101000 (
b1101000 )
b1101000 /
b1101000 H
b1100110010001000100011001100110011001100110011001100100011001100 9
b1100110010001000100011001100110011001100110011001100100011001100 F
b1100110010001000100011001100110011001100110011001100100011001100 U
b1001110100101010101010010101010101011001110110010001001000011101 8
b1001110100101010101010010101010101011001110110010001001000011101 E
b1001110100101010101010010101010101011001110110010001001000011101 Q
b1100110010001000100011001100110011001100110011001100100011001100 G
b100 T
b100 S
b100 R
1%
#8450000
0%
#8500000
14
b1001110100101010101010010101010101011001110110010001001000011101 9
b1001110100101010101010010101010101011001110110010001001000011101 F
b1001110100101010101010010101010101011001110110010001001000011101 U
b110111011001100110001101110111011100110111001100110110001101110 8
b110111011001100110001101110111011100110111001100110110001101110 E
b110111011001100110001101110111011100110111001100110110001101110 Q
1A
b1001110100101010101010010101010101011001110110010001001000011101 G
b100 T
b100 S
b100 R
1%
#8550000
0%
#8600000
b110111011001100110001101110111011100110111001100110110001101110 9
b110111011001100110001101110111011100110111001100110110001101110 F
b110111011001100110001101110111011100110111001100110110001101110 U
04
b11111101101110111000110111011101110011111100111011011010111111 8
b11111101101110111000110111011101110011111100111011011010111111 E
b11111101101110111000110111011101110011111100111011011010111111 Q
b1 I
b110111011001100110001101110111011100110111001100110110001101110 G
1B
b100 T
b100 S
b100 R
1%
#8650000
0%
#8700000
03
b0 $
b0 ,
b11111101101110111000110111011101110011111100111011011010111111 9
b11111101101110111000110111011101110011111100111011011010111111 F
b11111101101110111000110111011101110011111100111011011010111111 U
b0 8
b0 E
b0 Q
b11111101101110111000110111011101110011111100111011011010111111 G
b100 T
b100 S
b100 R
1%
#8750000
0%
#8800000
b0 9
b0 F
b0 U
b1101000110100010001011011001100110011101000111010101101001010001 8
b1101000110100010001011011001100110011101000111010101101001010001 E
b1101000110100010001011011001100110011101000111010101101001010001 Q
b0 G
0A
b100 T
b100 S
b100 R
1%
#8850000
0%
#8900000
b1101000110100010001011011001100110011101000111010101101001010001 9
b1101000110100010001011011001100110011101000111010101101001010001 F
b1101000110100010001011011001100110011101000111010101101001010001 U
b1010001001000100010010100010001000101010001010101010010010100010 8
b1010001001000100010010100010001000101010001010101010010010100010 E
b1010001001000100010010100010001000101010001010101010010010100010 Q
0B
b1101000110100010001011011001100110011101000111010101101001010001 G
b100 T
b100 S
b100 R
1%
#8950000
0%
#9000000
b1010001001000100010010100010001000101010001010101010010010100010 9
b1010001001000100010010100010001000101010001010101010010010100010 F
b1010001001000100010010100010001000101010001010101010010010100010 U
b111001111100110011001111011101110110111001101111111111011110011 8
b111001111100110011001111011101110110111001101111111111011110011 E
b111001111100110011001111011101110110111001101111111111011110011 Q
b1010001001000100010010100010001000101010001010101010010010100010 G
b100 T
b100 S
b100 R
1%
#9050000
0%
#9100000
b111001111100110011001111011101110110111001101111111111011110011 9
b111001111100110011001111011101110110111001101111111111011110011 F
b111001111100110011001111011101110110111001101111111111011110011 U
b100010010001000100001000100010001000100010001000100100001000100 8
b100010010001000100001000100010001000100010001000100100001000100 E
b100010010001000100001000100010001000100010001000100100001000100 Q
b111001111100110011001111011101110110111001101111111111011110011 G
b100 T
b100 S
b100 R
1%
#9150000
0%
#9200000
13
b1 $
b1 ,
b1010 (
b1010 )
b1010 /
b1010 H
b100010010001000100001000100010001000100010001000100100001000100 9
b100010010001000100001000100010001000100010001000100100001000100 F
b100010010001000100001000100010001000100010001000100100001000100 U
b1010100101010101000011101110111010001010100011001001010010101 8
b1010100101010101000011101110111010001010100011001001010010101 E
b1010100101010101000011101110111010001010100011001001010010101 Q
b100010010001000100001000100010001000100010001000100100001000100 G
b100 T
b100 S
b100 R
1%
#9250000
0%
#9300000
14
b1010100101010101000011101110111010001010100011001001010010101 9
b1010100101010101000011101110111010001010100011001001010010101 F
b1010100101010101000011101110111010001010100011001001010010101 U
b1110011011001100110011100110011001101110011011101110110011100110 8
b1110011011001100110011100110011001101110011011101110110011100110 E
b1110011011001100110011100110011001101110011011101110110011100110 Q
1A
b1010100101010101000011101110111010001010100011001001010010101 G
b100 T
b100 S
b100 R
1%
#9350000
0%
#9400000
b1110011011001100110011100110011001101110011011101110110011100110 9
b1110011011001100110011100110011001101110011011101110110011100110 F
b1110011011001100110011100110011001101110011011101110110011100110 U
04
b1011011101101110111010111111111111111011011110110011011000110111 8
b1011011101101110111010111111111111111011011110110011011000110111 E
b1011011101101110111010111111111111111011011110110011011000110111 Q
b10 I
b1110011011001100110011100110011001101110011011101110110011100110 G
1B
b100 T
b100 S
b100 R
1%
#9450000
0%
#9500000
03
b0 $
b0 ,
b1011011101101110111010111111111111111011011110110011011000110111 9
b1011011101101110111010111111111111111011011110110011011000110111 F
b1011011101101110111010111111111111111011011110110011011000110111 U
b1000100000000000000010001000100010001000100010001000000010001000 8
b1000100000000000000010001000100010001000100010001000000010001000 E
b1000100000000000000010001000100010001000100010001000000010001000 Q
b1011011101101110111010111111111111111011011110110011011000110111 G
b100 T
b100 S
b100 R
1%
#9550000
0%
#9600000
b1000100000000000000010001000100010001000100010001000000010001000 9
b1000100000000000000010001000100010001000100010001000000010001000 F
b1000100000000000000010001000100010001000100010001000000010001000 U
b101100110100010001001010001000100010101100101011101101011011001 8
b101100110100010001001010001000100010101100101011101101011011001 E
b101100110100010001001010001000100010101100101011101101011011001 Q
b1000100000000000000010001000100010001000100010001000000010001000 G
0A
b100 T
b100 S
b100 R
1%
#9650000
0%
#9700000
b101100110100010001001010001000100010101100101011101101011011001 9
b101100110100010001001010001000100010101100101011101101011011001 F
b101100110100010001001010001000100010101100101011101101011011001 U
b10101001000100010000101010101010100010101000100010010000101010 8
b10101001000100010000101010101010100010101000100010010000101010 E
b10101001000100010000101010101010100010101000100010010000101010 Q
0B
b101100110100010001001010001000100010101100101011101101011011001 G
b100 T
b100 S
b100 R
1%
#9750000
0%
#9800000
b10101001000100010000101010101010100010101000100010010000101010 9
b10101001000100010000101010101010100010101000100010010000101010 F
b10101001000100010000101010101010100010101000100010010000101010 U
b1111101111100110011011110011001100111111101111110111111001111011 8
b1111101111100110011011110011001100111111101111110111111001111011 E
b1111101111100110011011110011001100111111101111110111111001111011 Q
b10101001000100010000101010101010100010101000100010010000101010 G
b100 T
b100 S
b100 R
1%
#9850000
0%
#9900000
b1111101111100110011011110011001100111111101111110111111001111011 9
b1111101111100110011011110011001100111111101111110111111001111011 F
b1111101111100110011011110011001100111111101111110111111001111011 U
b1100110010001000100011001100110011001100110011001100100011001100 8
b1100110010001000100011001100110011001100110011001100100011001100 E
b1100110010001000100011001100110011001100110011001100100011001100 Q
b1111101111100110011011110011001100111111101111110111111001111011 G
b100 T
b100 S
b100 R
1%
#9950000
0%
#10000000
13
b1 $
b1 ,
b1111001 (
b1111001 )
b1111001 /
b1111001 H
b1100110010001000100011001100110011001100110011001100100011001100 9
b1100110010001000100011001100110011001100110011001100100011001100 F
b1100110010001000100011001100110011001100110011001100100011001100 U
b1001110100101010101010010101010101011001110110010001001000011101 8
b1001110100101010101010010101010101011001110110010001001000011101 E
b1001110100101010101010010101010101011001110110010001001000011101 Q
b1100110010001000100011001100110011001100110011001100100011001100 G
b100 T
b100 S
b100 R
1%
#10050000
0%
#10100000
14
b1001110100101010101010010101010101011001110110010001001000011101 9
b1001110100101010101010010101010101011001110110010001001000011101 F
b1001110100101010101010010101010101011001110110010001001000011101 U
b110111011001100110001101110111011100110111001100110110001101110 8
b110111011001100110001101110111011100110111001100110110001101110 E
b110111011001100110001101110111011100110111001100110110001101110 Q
1A
b1001110100101010101010010101010101011001110110010001001000011101 G
b100 T
b100 S
b100 R
1%
#10150000
0%
#10200000
b110111011001100110001101110111011100110111001100110110001101110 9
b110111011001100110001101110111011100110111001100110110001101110 F
b110111011001100110001101110111011100110111001100110110001101110 U
04
b11111101101110111000110111011101110011111100111011011010111111 8
b11111101101110111000110111011101110011111100111011011010111111 E
b11111101101110111000110111011101110011111100111011011010111111 Q
b11 I
b110111011001100110001101110111011100110111001100110110001101110 G
1B
b100 T
b100 S
b100 R
1%
#10250000
0%
#10300000
03
b0 $
b0 ,
b11111101101110111000110111011101110011111100111011011010111111 9
b11111101101110111000110111011101110011111100111011011010111111 F
b11111101101110111000110111011101110011111100111011011010111111 U
b0 8
b0 E
b0 Q
b11111101101110111000110111011101110011111100111011011010111111 G
b100 T
b100 S
b100 R
1%
#10350000
0%
#10400000
b0 9
b0 F
b0 U
b1101000110100010001011011001100110011101000111010101101001010001 8
b1101000110100010001011011001100110011101000111010101101001010001 E
b1101000110100010001011011001100110011101000111010101101001010001 Q
b0 G
0A
b100 T
b100 S
b100 R
1%
#10450000
0%
#10500000
b1101000110100010001011011001100110011101000111010101101001010001 9
b1101000110100010001011011001100110011101000111010101101001010001 F
b1101000110100010001011011001100110011101000111010101101001010001 U
b1010001001000100010010100010001000101010001010101010010010100010 8
b1010001001000100010010100010001000101010001010101010010010100010 E
b1010001001000100010010100010001000101010001010101010010010100010 Q
0B
b1101000110100010001011011001100110011101000111010101101001010001 G
b100 T
b100 S
b100 R
1%
#10550000
0%
#10600000
b1010001001000100010010100010001000101010001010101010010010100010 9
b1010001001000100010010100010001000101010001010101010010010100010 F
b1010001001000100010010100010001000101010001010101010010010100010 U
b111001111100110011001111011101110110111001101111111111011110011 8
b111001111100110011001111011101110110111001101111111111011110011 E
b111001111100110011001111011101110110111001101111111111011110011 Q
b1010001001000100010010100010001000101010001010101010010010100010 G
b100 T
b100 S
b100 R
1%
#10650000
0%
#10700000
b111001111100110011001111011101110110111001101111111111011110011 9
b111001111100110011001111011101110110111001101111111111011110011 F
b111001111100110011001111011101110110111001101111111111011110011 U
b100010010001000100001000100010001000100010001000100100001000100 8
b100010010001000100001000100010001000100010001000100100001000100 E
b100010010001000100001000100010001000100010001000100100001000100 Q
b111001111100110011001111011101110110111001101111111111011110011 G
b100 T
b100 S
b100 R
1%
#10750000
0%
#10800000
13
b1 $
b1 ,
b11101 (
b11101 )
b11101 /
b11101 H
b100010010001000100001000100010001000100010001000100100001000100 9
b100010010001000100001000100010001000100010001000100100001000100 F
b100010010001000100001000100010001000100010001000100100001000100 U
b1010100101010101000011101110111010001010100011001001010010101 8
b1010100101010101000011101110111010001010100011001001010010101 E
b1010100101010101000011101110111010001010100011001001010010101 Q
b100010010001000100001000100010001000100010001000100100001000100 G
b100 T
b100 S
b100 R
1%
#10850000
0%
#10900000
14
b1010100101010101000011101110111010001010100011001001010010101 9
b1010100101010101000011101110111010001010100011001001010010101 F
b1010100101010101000011101110111010001010100011001001010010101 U
b1110011011001100110011100110011001101110011011101110110011100110 8
b1110011011001100110011100110011001101110011011101110110011100110 E
b1110011011001100110011100110011001101110011011101110110011100110 Q
1A
b1010100101010101000011101110111010001010100011001001010010101 G
b100 T
b100 S
b100 R
1%
#10950000
0%
#11000000
b1110011011001100110011100110011001101110011011101110110011100110 9
b1110011011001100110011100110011001101110011011101110110011100110 F
b1110011011001100110011100110011001101110011011101110110011100110 U
04
b1011011101101110111010111111111111111011011110110011011000110111 8
b1011011101101110111010111111111111111011011110110011011000110111 E
b1011011101101110111010111111111111111011011110110011011000110111 Q
b100 I
b1110011011001100110011100110011001101110011011101110110011100110 G
1B
b100 T
b100 S
b100 R
1%
#11050000
0%
#11100000
03
b0 $
b0 ,
b1011011101101110111010111111111111111011011110110011011000110111 9
b1011011101101110111010111111111111111011011110110011011000110111 F
b1011011101101110111010111111111111111011011110110011011000110111 U
b1000100000000000000010001000100010001000100010001000000010001000 8
b1000100000000000000010001000100010001000100010001000000010001000 E
b1000100000000000000010001000100010001000100010001000000010001000 Q
b1011011101101110111010111111111111111011011110110011011000110111 G
b100 T
b100 S
b100 R
1%
#11150000
0%
#11200000
b1000100000000000000010001000100010001000100010001000000010001000 9
b1000100000000000000010001000100010001000100010001000000010001000 F
b1000100000000000000010001000100010001000100010001000000010001000 U
b101100110100010001001010001000100010101100101011101101011011001 8
b101100110100010001001010001000100010101100101011101101011011001 E
b101100110100010001001010001000100010101100101011101101011011001 Q
b1000100000000000000010001000100010001000100010001000000010001000 G
0A
b100 T
b100 S
b100 R
1%
#11250000
0%
#11300000
b101100110100010001001010001000100010101100101011101101011011001 9
b101100110100010001001010001000100010101100101011101101011011001 F
b101100110100010001001010001000100010101100101011101101011011001 U
b10101001000100010000101010101010100010101000100010010000101010 8
b10101001000100010000101010101010100010101000100010010000101010 E
b10101001000100010000101010101010100010101000100010010000101010 Q
0B
b101100110100010001001010001000100010101100101011101101011011001 G
b100 T
b100 S
b100 R
1%
#11350000
0%
#11400000
b10101001000100010000101010101010100010101000100010010000101010 9
b10101001000100010000101010101010100010101000100010010000101010 F
b10101001000100010000101010101010100010101000100010010000101010 U
b1111101111100110011011110011001100111111101111110111111001111011 8
b1111101111100110011011110011001100111111101111110111111001111011 E
b1111101111100110011011110011001100111111101111110111111001111011 Q
b10101001000100010000101010101010100010101000100010010000101010 G
b100 T
b100 S
b100 R
1%
#11450000
0%
#11500000
b1111101111100110011011110011001100111111101111110111111001111011 9
b1111101111100110011011110011001100111111101111110111111001111011 F
b1111101111100110011011110011001100111111101111110111111001111011 U
b1100110010001000100011001100110011001100110011001100100011001100 8
b1100110010001000100011001100110011001100110011001100100011001100 E
b1100110010001000100011001100110011001100110011001100100011001100 Q
b1111101111100110011011110011001100111111101111110111111001111011 G
b100 T
b100 S
b100 R
1%
#11550000
0%
#11600000
13
b1 $
b1 ,
b100010 (
b100010 )
b100010 /
b100010 H
b1100110010001000100011001100110011001100110011001100100011001100 9
b1100110010001000100011001100110011001100110011001100100011001100 F
b1100110010001000100011001100110011001100110011001100100011001100 U
b1001110100101010101010010101010101011001110110010001001000011101 8
b1001110100101010101010010101010101011001110110010001001000011101 E
b1001110100101010101010010101010101011001110110010001001000011101 Q
b1100110010001000100011001100110011001100110011001100100011001100 G
b100 T
b100 S
b100 R
1%
#11650000
0%
#11700000
14
b1001110100101010101010010101010101011001110110010001001000011101 9
b1001110100101010101010010101010101011001110110010001001000011101 F
b1001110100101010101010010101010101011001110110010001001000011101 U
b110111011001100110001101110111011100110111001100110110001101110 8
b110111011001100110001101110111011100110111001100110110001101110 E
b110111011001100110001101110111011100110111001100110110001101110 Q
1A
b1001110100101010101010010101010101011001110110010001001000011101 G
b100 T
b100 S
b100 R
1%
#11750000
0%
#11800000
b110111011001100110001101110111011100110111001100110110001101110 9
b110111011001100110001101110111011100110111001100110110001101110 F
b110111011001100110001101110111011100110111001100110110001101110 U
04
b11111101101110111000110111011101110011111100111011011010111111 8
b11111101101110111000110111011101110011111100111011011010111111 E
b11111101101110111000110111011101110011111100111011011010111111 Q
b101 I
b110111011001100110001101110111011100110111001100110110001101110 G
1B
b100 T
b100 S
b100 R
1%
#11850000
0%
#11900000
03
b0 $
b0 ,
b11111101101110111000110111011101110011111100111011011010111111 9
b11111101101110111000110111011101110011111100111011011010111111 F
b11111101101110111000110111011101110011111100111011011010111111 U
b0 8
b0 E
b0 Q
b11111101101110111000110111011101110011111100111011011010111111 G
b100 T
b100 S
b100 R
1%
#11950000
0%
